<?xml version="1.0" encoding="UTF-8" standalone="no"?>
<svg
   xmlns:dc="http://purl.org/dc/elements/1.1/"
   xmlns:cc="http://creativecommons.org/ns#"
   xmlns:rdf="http://www.w3.org/1999/02/22-rdf-syntax-ns#"
   xmlns:svg="http://www.w3.org/2000/svg"
   xmlns="http://www.w3.org/2000/svg"
   xmlns:xlink="http://www.w3.org/1999/xlink"
   viewBox="0 0 128 128"
   version="1.0"
   style="enable-background:new"
   height="128"
   width="128"
   id="svg11300">
  <title
     id="title4162">Adwaita Icon Template</title>
  <defs
     id="defs3">
    <linearGradient
       id="linearGradient1054">
      <stop
         style="stop-color:#ee444c;stop-opacity:1"
         offset="0"
         id="stop1050" />
      <stop
         id="stop1058"
         offset="0.07"
         style="stop-color:#a51d2d;stop-opacity:1" />
      <stop
         style="stop-color:#a51d2d;stop-opacity:1"
         offset="0.13625628"
         id="stop1060" />
      <stop
         id="stop1074"
         offset="0.22099255"
         style="stop-color:#ee444c;stop-opacity:1" />
      <stop
         id="stop1062"
         offset="0.30013964"
         style="stop-color:#a51d2d;stop-opacity:1" />
      <stop
         style="stop-color:#a51d2d;stop-opacity:1"
         offset="0.41802126"
         id="stop1064" />
      <stop
         id="stop1078"
         offset="0.5025363"
         style="stop-color:#ee444c;stop-opacity:1" />
      <stop
         id="stop1066"
         offset="0.57815421"
         style="stop-color:#a51d2d;stop-opacity:1" />
      <stop
         style="stop-color:#a51d2d;stop-opacity:1"
         offset="0.69079018"
         id="stop1068" />
      <stop
         id="stop1076"
         offset="0.77653378"
         style="stop-color:#ee444c;stop-opacity:1" />
      <stop
         id="stop1070"
         offset="0.86267298"
         style="stop-color:#a51d2d;stop-opacity:1" />
      <stop
         style="stop-color:#a51d2d;stop-opacity:1"
         offset="0.93005908"
         id="stop1072" />
      <stop
         style="stop-color:#ee444c;stop-opacity:1"
         offset="1"
         id="stop1052" />
    </linearGradient>
    <linearGradient
       gradientUnits="userSpaceOnUse"
       gradientTransform="matrix(0.25,0,0,0.25,-110,225)"
       y2="44"
       y1="44"
       x2="464"
       x1="48"
       id="linearGradient1747">
      <stop
         offset="0"
         style="stop-color:#a51d2d;stop-opacity:1"
         id="stop962" />
      <stop
         offset=".041667"
         style="stop-color:#f66151;stop-opacity:1"
         id="stop964" />
      <stop
         offset=".083333"
         style="stop-color:#a51d2d;stop-opacity:1"
         id="stop966" />
      <stop
         offset=".91667"
         style="stop-color:#a51d2d;stop-opacity:1"
         id="stop968" />
      <stop
         offset=".95833"
         style="stop-color:#f66151;stop-opacity:1"
         id="stop970" />
      <stop
         offset="1"
         style="stop-color:#a51d2d;stop-opacity:1"
         id="stop972" />
    </linearGradient>
    <clipPath
       id="clipPath1784">
      <rect
         style="fill:#3584e4"
         ry="14"
         rx="14"
         height="28"
         width="60"
         y="202"
         x="36"
         id="rect1786" />
    </clipPath>
    <linearGradient
       gradientUnits="userSpaceOnUse"
       gradientTransform="scale(1.0018059,0.99819732)"
       id="a"
       x1="142.44026"
       x2="358.94863"
       y1="80.53595"
       y2="456.88947">
      <stop
         stop-opacity=".2"
         offset="0%"
         id="stop859" />
      <stop
         stop-opacity=".05"
         offset="79.08%"
         id="stop861" />
    </linearGradient>
    <linearGradient
       id="m"
       x1="529.29"
       x2="543.34"
       y1="441.73"
       y2="408.6"
       gradientTransform="translate(-461.56,-35.819)"
       gradientUnits="userSpaceOnUse">
      <stop
         stop-color="#f9f06b"
         offset="0"
         id="stop902" />
      <stop
         stop-color="#f6d32d"
         offset="1"
         id="stop904" />
    </linearGradient>
    <linearGradient
       id="l"
       x1="529.29"
       x2="543.34"
       y1="441.73"
       y2="408.6"
       gradientTransform="rotate(-120,320.2,508.25)"
       gradientUnits="userSpaceOnUse">
      <stop
         stop-color="#2dc0af"
         offset="0"
         id="stop907" />
      <stop
         stop-color="#5ed9cb"
         offset="1"
         id="stop909" />
    </linearGradient>
    <linearGradient
       id="k"
       x1="56"
       x2="0"
       y1="252"
       y2="244"
       gradientTransform="translate(42.443,122.18)"
       gradientUnits="userSpaceOnUse">
      <stop
         stop-color="#fff"
         offset="0"
         id="stop912" />
      <stop
         stop-color="#fff"
         stop-opacity="0"
         offset="1"
         id="stop914" />
    </linearGradient>
    <linearGradient
       id="j"
       x1="64"
       x2="80"
       y1="260"
       y2="220"
       gradientTransform="translate(42.443,122.18)"
       gradientUnits="userSpaceOnUse">
      <stop
         stop-color="#2dc0af"
         offset="0"
         id="stop917" />
      <stop
         stop-color="#3584e4"
         offset="1"
         id="stop919" />
    </linearGradient>
    <linearGradient
       id="i"
       x1="32"
       x2="56"
       y1="239.25"
       y2="196"
       gradientTransform="translate(42.443,122.18)"
       gradientUnits="userSpaceOnUse">
      <stop
         stop-color="#c061cb"
         offset="0"
         id="stop922" />
      <stop
         stop-color="#8f58c8"
         offset="1"
         id="stop924" />
    </linearGradient>
    <linearGradient
       gradientUnits="userSpaceOnUse"
       id="XMLID_2_"
       y2="258.86539"
       x2="187.94679"
       y1="123.8594"
       x1="187.94679">
      <stop
         offset="0"
         style="stop-color:#bf0000;stop-opacity:1"
         id="stop2308" />
      <stop
         offset="1"
         style="stop-color:#8f0000;stop-opacity:1"
         id="stop2310" />
    </linearGradient>
    <linearGradient
       gradientTransform="matrix(2.1744399,0,0,2.1743699,-218.68699,-223.17198)"
       gradientUnits="userSpaceOnUse"
       xlink:href="#XMLID_2_"
       id="linearGradient3060"
       y2="258.86539"
       x2="187.94679"
       y1="123.8594"
       x1="187.94679" />
    <clipPath
       id="clipPath5343"
       clipPathUnits="userSpaceOnUse">
      <path
         id="path5345"
         d="m 3.0688351,285.55677 c -1.613568,1.19596 -2.5662181,3.08478 -2.56883509,5.09323 0,3.50701 2.84299219,6.35 6.35000009,6.35 C 10.357008,297 13.2,294.15701 13.2,290.65 c -0.0022,-0.84296 -0.452078,-2.71271 -0.500228,-2.45359 -0.02424,0.84121 -0.571809,2.35322 -0.602031,2.23138 -0.0026,-0.50621 -0.2876,-1.42626 -0.305098,-1.19509 0.02804,1.40695 -1.48374,3.17677 -2.3076623,3.50038 -0.8310457,0.36942 -1.7371637,0.56412 -2.6117267,0.56534 -0.1736918,2e-5 -1.1686519,-0.13807 -1.6443439,-0.70435 -0.826376,-0.89253 -0.00201,-1.09994 0.4625039,-1.27331 0.5055862,-0.18871 1.030887,-0.30969 1.5203212,-0.42013 0.7456988,-0.16826 0.4710618,-0.52626 0.1049028,-0.6289 -0.9266939,-0.25976 -2.044886,0.33543 -2.8654579,0.30593 -0.848406,-0.0291 -0.804618,-1.69621 -0.1405601,-1.76217 0.7394212,-0.0734 1.6665151,-0.51079 1.461779,-0.65673 -0.8303549,-0.61672 -0.9617369,-0.79081 -1.0595549,-1.16418 -0.1480201,-0.565 0.341282,-1.03557 0.05777,-0.96356 -0.2596169,0.08 -0.4110678,0.15641 -0.5988619,0.25715 -0.1672929,0.0897 -0.293814,0.0546 -0.6751841,0.002 -0.3249449,-0.045 -0.3870058,-0.0557 -0.3755009,-0.25673 0.0115,-0.20097 0.07295,-0.52125 -0.05223,-0.47648 z"
         style="fill:#7aafff;fill-opacity:1;stroke:none;stroke-width:2.01045942;stroke-linecap:round;stroke-linejoin:round;stroke-miterlimit:4;stroke-dasharray:none;stroke-opacity:1" />
    </clipPath>
    <clipPath
       id="clipPath4543"
       clipPathUnits="userSpaceOnUse">
      <path
         id="path4545"
         d="m 1.7760088,291.5696 c -1.82613339,0.17434 -3.2940315,0.91934 -3.4903996,2.16451 -0.2629054,1.66729 1.5678591,3.34127 4.0891213,3.73893 1.2172084,0.19119 2.434234,0.053 3.3807423,-0.38387 0.7310194,0.5283 1.669357,0.90078 2.6704721,1.06008 2.5212691,0.39771 4.7783381,-0.6315 5.0412801,-2.2988 0.262905,-1.6673 -1.490667,-1.94329 -4.257163,-2.17938 -2.7664958,-0.23609 -3.6163896,-1.68839 -5.7470448,-2.04575 -0.5660191,-0.0893 -1.1380808,-0.10817 -1.6870084,-0.0557 z"
         style="opacity:1;vector-effect:none;fill:#666666;fill-opacity:1;stroke:none;stroke-width:2.11666656;stroke-linecap:round;stroke-linejoin:round;stroke-miterlimit:4;stroke-dasharray:none;stroke-dashoffset:0;stroke-opacity:1" />
    </clipPath>
    <linearGradient
       xlink:href="#linearGradient1054"
       id="linearGradient1056"
       x1="12"
       y1="116"
       x2="116"
       y2="116"
       gradientUnits="userSpaceOnUse" />
  </defs>
  <metadata
     id="metadata4">
    <rdf:RDF>
      <cc:Work
         rdf:about="">
        <dc:format>image/svg+xml</dc:format>
        <dc:type
           rdf:resource="http://purl.org/dc/dcmitype/StillImage" />
        <dc:creator>
          <cc:Agent>
            <dc:title>GNOME Design Team</dc:title>
          </cc:Agent>
        </dc:creator>
        <dc:source />
        <cc:license
           rdf:resource="http://creativecommons.org/licenses/by-sa/4.0/" />
        <dc:title>Adwaita Icon Template</dc:title>
        <dc:subject>
          <rdf:Bag />
        </dc:subject>
        <dc:date />
        <dc:rights>
          <cc:Agent>
            <dc:title />
          </cc:Agent>
        </dc:rights>
        <dc:publisher>
          <cc:Agent>
            <dc:title />
          </cc:Agent>
        </dc:publisher>
        <dc:identifier />
        <dc:relation />
        <dc:language />
        <dc:coverage />
        <dc:description />
        <dc:contributor>
          <cc:Agent>
            <dc:title />
          </cc:Agent>
        </dc:contributor>
      </cc:Work>
      <cc:License
         rdf:about="http://creativecommons.org/licenses/by-sa/4.0/">
        <cc:permits
           rdf:resource="http://creativecommons.org/ns#Reproduction" />
        <cc:permits
           rdf:resource="http://creativecommons.org/ns#Distribution" />
        <cc:requires
           rdf:resource="http://creativecommons.org/ns#Notice" />
        <cc:requires
           rdf:resource="http://creativecommons.org/ns#Attribution" />
        <cc:permits
           rdf:resource="http://creativecommons.org/ns#DerivativeWorks" />
        <cc:requires
           rdf:resource="http://creativecommons.org/ns#ShareAlike" />
      </cc:License>
    </rdf:RDF>
  </metadata>
  <path
     id="path1080"
     style="vector-effect:none;fill:#63121b;fill-opacity:1;stroke:none;stroke-width:3.65668;stroke-linecap:round;stroke-linejoin:round;stroke-miterlimit:4;stroke-dasharray:none;stroke-dashoffset:15;stroke-opacity:1"
     d="m 12,18 v 12.541854 c 4.022136,0.928734 6.872766,4.507922 6.87779,8.635603 0.0015,4.132898 -2.850574,7.719641 -6.87779,8.64955 V 59.350446 C 16.027217,60.280356 18.879258,63.867101 18.87779,68 18.879258,72.132899 16.027217,75.719644 12,76.649554 V 88.17299 c 4.027216,0.929909 6.879256,4.516652 6.87779,8.64955 -0.0018,4.13029 -2.853114,7.71326 -6.87779,8.64258 V 118 h 14.53489 c 0.926358,-4.02712 4.509995,-6.88188 8.64257,-6.88476 4.132579,0.003 7.71622,2.85764 8.64258,6.88476 h 11.53739 c 0.92577,-4.02459 4.50564,-6.87864 8.63561,-6.88476 4.13518,-3.6e-4 7.72259,2.8551 8.64953,6.88476 h 11.53739 c 0.92636,-4.02712 4.51,-6.88189 8.64258,-6.88476 4.13258,0.003 7.71621,2.85764 8.64257,6.88476 H 116 v -12.53488 c -4.02722,-0.92991 -6.87926,-4.51665 -6.87779,-8.64955 0.002,-4.130291 2.85311,-7.713257 6.87779,-8.64258 V 76.642579 c -4.02722,-0.92991 -6.87926,-4.516655 -6.87779,-8.649554 0.002,-4.130291 2.85311,-7.713256 6.87779,-8.642579 V 47.820032 C 111.97533,46.89071 109.12399,43.307746 109.12221,39.177457 109.12074,35.044556 111.97278,31.45781 116,30.5279 V 18 h -14.53489 c -0.92914,4.02435 -4.51207,6.87566 -8.64257,6.877789 C 88.69204,24.875664 85.1091,22.024354 84.17996,18 H 72.64257 C 71.71343,22.02435 68.1305,24.87566 64,24.877789 59.8695,24.87566 56.28657,22.02435 55.35743,18 H 43.82004 C 42.8909,22.024354 39.307964,24.875664 35.17746,24.877789 31.046959,24.87566 27.464028,22.02435 26.53489,18 Z" />
  <path
     d="m 12,16 v 12.541854 c 4.022136,0.928734 6.872766,4.507922 6.87779,8.635603 0.0015,4.132898 -2.850574,7.719641 -6.87779,8.64955 V 57.350446 C 16.027217,58.280356 18.879258,61.867101 18.87779,66 18.879258,70.132899 16.027217,73.719644 12,74.649554 V 86.17299 c 4.027216,0.929909 6.879256,4.516652 6.87779,8.64955 -0.0018,4.130291 -2.853114,7.71326 -6.87779,8.64258 V 116 h 14.53489 c 0.926358,-4.02712 4.509995,-6.88188 8.64257,-6.88476 4.132579,0.003 7.71622,2.85764 8.64258,6.88476 h 11.53739 c 0.92577,-4.02459 4.50564,-6.87864 8.63561,-6.88476 4.13518,-3.6e-4 7.72259,2.8551 8.64953,6.88476 h 11.53739 c 0.92636,-4.02712 4.51,-6.88189 8.64258,-6.88476 4.13258,0.003 7.71621,2.85764 8.64257,6.88476 H 116 v -12.53488 c -4.02722,-0.92991 -6.87926,-4.516652 -6.87779,-8.64955 0.002,-4.130291 2.85311,-7.713257 6.87779,-8.64258 V 74.642579 c -4.02722,-0.92991 -6.87926,-4.516655 -6.87779,-8.649554 0.002,-4.130291 2.85311,-7.713256 6.87779,-8.642579 V 45.820032 C 111.97533,44.89071 109.12399,41.307746 109.12221,37.177457 109.12074,33.044556 111.97278,29.45781 116,28.5279 V 16 h -14.53489 c -0.92914,4.02435 -4.51207,6.87566 -8.64257,6.877789 C 88.69204,22.875664 85.1091,20.024354 84.17996,16 H 72.64257 C 71.71343,20.02435 68.1305,22.87566 64,22.877789 59.8695,22.87566 56.28657,20.02435 55.35743,16 H 43.82004 C 42.8909,20.024354 39.307964,22.875664 35.17746,22.877789 31.046959,22.87566 27.464028,20.02435 26.53489,16 Z"
     style="vector-effect:none;fill:url(#linearGradient1056);fill-opacity:1;stroke:none;stroke-width:3.65668;stroke-linecap:round;stroke-linejoin:round;stroke-miterlimit:4;stroke-dasharray:none;stroke-dashoffset:15;stroke-opacity:1"
     id="path1048" />
  <path
     id="rect4634"
     style="vector-effect:none;fill:#e01b24;fill-opacity:1;stroke:none;stroke-width:3.65668;stroke-linecap:round;stroke-linejoin:round;stroke-miterlimit:4;stroke-dasharray:none;stroke-dashoffset:15;stroke-opacity:1"
     d="m 12,12 v 12.541854 c 4.022136,0.928734 6.872766,4.507922 6.87779,8.635603 0.0015,4.132898 -2.850574,7.719641 -6.87779,8.64955 V 53.350446 C 16.027217,54.280356 18.879258,57.867101 18.87779,62 18.879258,66.132899 16.027217,69.719644 12,70.649554 V 82.17299 c 4.027216,0.929909 6.879256,4.516652 6.87779,8.64955 C 18.87599,94.952831 16.024676,98.5358 12,99.46512 V 112 h 14.53489 c 0.926358,-4.02712 4.509995,-6.88188 8.64257,-6.88476 4.132579,0.003 7.71622,2.85764 8.64258,6.88476 h 11.53739 c 0.92577,-4.02459 4.50564,-6.87864 8.63561,-6.88476 4.13518,-3.6e-4 7.72259,2.8551 8.64953,6.88476 h 11.53739 c 0.92636,-4.02712 4.51,-6.88189 8.64258,-6.88476 4.13258,0.003 7.71621,2.85764 8.64257,6.88476 H 116 V 99.46512 c -4.02722,-0.92991 -6.87926,-4.516652 -6.87779,-8.64955 0.002,-4.130291 2.85311,-7.713257 6.87779,-8.64258 V 70.642579 c -4.02722,-0.92991 -6.87926,-4.516655 -6.87779,-8.649554 0.002,-4.130291 2.85311,-7.713256 6.87779,-8.642579 V 41.820032 C 111.97533,40.89071 109.12399,37.307746 109.12221,33.177457 109.12074,29.044556 111.97278,25.45781 116,24.5279 V 12 h -14.53489 c -0.92914,4.02435 -4.51207,6.87566 -8.64257,6.877789 C 88.69204,18.875664 85.1091,16.024354 84.17996,12 H 72.64257 C 71.71343,16.02435 68.1305,18.87566 64,18.877789 59.8695,18.87566 56.28657,16.02435 55.35743,12 H 43.82004 C 42.8909,16.024354 39.307964,18.875664 35.17746,18.877789 31.046959,18.87566 27.464028,16.02435 26.53489,12 Z" />
  <path
     d="M 93.560018,54.976939 H 51.727723 l 2.183116,-10.10296 H 79.40693 L 81.74595,34 H 45.099696 L 33.560018,87.830897 H 44.63199 l 5.067077,-23.52249 H 76.255776 L 53.179774,86.905201 57.234206,94 c 1.870834,-1.23363 4.911656,-1.388309 7.017064,-1.388309 3.743104,0 7.407534,1.234581 11.226912,1.234581 3.502294,0 7.087579,-0.231546 12.936086,-3.008163 l 2.043525,-9.485672 c -3.977198,1.618904 -9.861687,3.161892 -14.979611,3.161892 -2.103971,0 -4.300828,0.865253 -6.328044,0.556847 L 91.519064,63.554758 Z"
     id="path2314"
     style="fill:#a51d2d;fill-opacity:1;stroke-width:0.219406" />
  <path
     style="fill:#ffffff;stroke-width:0.219406"
     id="path1084"
     d="M 94,52.976939 H 52.167705 l 2.183116,-10.10296 H 79.846912 L 82.185932,32 H 45.539678 L 34,85.830897 h 11.071972 l 5.067077,-23.52249 H 76.695758 L 53.619756,84.905201 57.674188,92 c 1.870834,-1.23363 4.911656,-1.388309 7.017064,-1.388309 3.743104,0 7.407534,1.234581 11.226912,1.234581 3.502294,0 7.087579,-0.231546 12.936086,-3.008163 l 2.043525,-9.485672 c -3.977198,1.618904 -9.861687,3.161892 -14.979611,3.161892 -2.103971,0 -4.053472,-0.462613 -6.080688,-0.771019 L 92.206402,60.226892 Z" />
</svg>
