<?xml version="1.0" encoding="UTF-8" standalone="no"?>
<svg
   xmlns:dc="http://purl.org/dc/elements/1.1/"
   xmlns:cc="http://creativecommons.org/ns#"
   xmlns:rdf="http://www.w3.org/1999/02/22-rdf-syntax-ns#"
   xmlns:svg="http://www.w3.org/2000/svg"
   xmlns="http://www.w3.org/2000/svg"
   xmlns:xlink="http://www.w3.org/1999/xlink"
   width="128"
   height="128"
   version="1.0"
   id="svg55">
  <metadata
     id="metadata59">
    <rdf:RDF>
      <cc:Work
         rdf:about="">
        <dc:format>image/svg+xml</dc:format>
        <dc:type
           rdf:resource="http://purl.org/dc/dcmitype/StillImage" />
        <dc:title></dc:title>
      </cc:Work>
    </rdf:RDF>
  </metadata>
  <defs
     id="defs15">
    <linearGradient
       id="linearGradient1344">
      <stop
         style="stop-color:#9a9996;stop-opacity:1"
         offset="0"
         id="stop1340" />
      <stop
         id="stop1350"
         offset="0.08616749"
         style="stop-color:#deddda;stop-opacity:1" />
      <stop
         style="stop-color:#c0bfbc;stop-opacity:1"
         offset="0.19300552"
         id="stop1352" />
      <stop
         id="stop1348"
         offset="0.49881762"
         style="stop-color:#9a9996;stop-opacity:1" />
      <stop
         style="stop-color:#5e5c64;stop-opacity:1"
         offset="1"
         id="stop1342" />
    </linearGradient>
    <linearGradient
       id="e"
       x1="28"
       x2="116"
       y1="-274"
       y2="-274"
       gradientTransform="translate(-136,172)"
       gradientUnits="userSpaceOnUse">
      <stop
         stop-color="#c0bfbc"
         offset="0"
         id="stop2"
         style="stop-color:#613583;stop-opacity:1" />
      <stop
         stop-color="#f6f5f4"
         offset=".045"
         id="stop4"
         style="stop-color:#c061cb;stop-opacity:1" />
      <stop
         stop-color="#deddda"
         offset=".091"
         id="stop6"
         style="stop-color:#613583;stop-opacity:1" />
      <stop
         stop-color="#deddda"
         offset=".909"
         id="stop8"
         style="stop-color:#613583;stop-opacity:1" />
      <stop
         stop-color="#f6f5f4"
         offset=".955"
         id="stop10"
         style="stop-color:#c061cb;stop-opacity:1" />
      <stop
         stop-color="#c0bfbc"
         offset="1"
         id="stop12"
         style="stop-color:#613583;stop-opacity:1" />
    </linearGradient>
    <radialGradient
       gradientUnits="userSpaceOnUse"
       gradientTransform="matrix(0.21429,0,0,0.32237,9.1429,245.59)"
       r="225"
       cy="-60.348"
       cx="106.67"
       id="radialGradient1018">
      <stop
         offset="0"
         style="stop-color:#50dbb5"
         id="stop6822" />
      <stop
         offset="1"
         style="stop-color:#4a86cf"
         id="stop6824" />
    </radialGradient>
    <radialGradient
       gradientUnits="userSpaceOnUse"
       gradientTransform="matrix(0.38857,0,0,0.52385,-35.474,148.05)"
       r="225"
       cy="218.28"
       cx="276.59"
       id="radialGradient1020">
      <stop
         offset="0"
         style="stop-color:#98c1f1"
         id="stop1030" />
      <stop
         offset="1"
         style="stop-color:#2dc0af;stop-opacity:.1378"
         id="stop1032" />
    </radialGradient>
    <radialGradient
       gradientUnits="userSpaceOnUse"
       gradientTransform="matrix(0.38857,0,0,0.27573,-35.474,-281.79)"
       r="225"
       cy="86.748"
       cx="317.76"
       id="radialGradient1038">
      <stop
         offset="0"
         style="stop-color:#1a5fb4"
         id="stop1040" />
      <stop
         offset="1"
         style="stop-color:#98c1f1;stop-opacity:0"
         id="stop1042" />
    </radialGradient>
    <linearGradient
       gradientUnits="userSpaceOnUse"
       gradientTransform="matrix(0.25,0,0,0.25,-14.149,400.35)"
       y2="-449.39"
       y1="-449.39"
       x2="536.6"
       x1="88.596"
       id="linearGradient1064">
      <stop
         offset="0"
         style="stop-color:#77767b"
         id="stop1066" />
      <stop
         offset=".035714"
         style="stop-color:#c0bfbc"
         id="stop1068" />
      <stop
         offset=".071365"
         style="stop-color:#9a9996"
         id="stop1070" />
      <stop
         offset=".92857"
         style="stop-color:#9a9996"
         id="stop1072" />
      <stop
         offset=".96429"
         style="stop-color:#c0bfbc"
         id="stop1074" />
      <stop
         offset="1"
         style="stop-color:#77767b"
         id="stop1076" />
    </linearGradient>
    <linearGradient
       id="linearGradient1697">
      <stop
         offset="0"
         style="stop-color:#deddda"
         id="stop1685" />
      <stop
         offset=".045455"
         style="stop-color:#eeeeec"
         id="stop1687" />
      <stop
         offset=".090909"
         style="stop-color:#deddda"
         id="stop1689" />
      <stop
         offset=".90909"
         style="stop-color:#deddda"
         id="stop1691" />
      <stop
         offset=".95455"
         style="stop-color:#eeeeec"
         id="stop1693" />
      <stop
         offset="1"
         style="stop-color:#c0bfbc"
         id="stop1695" />
    </linearGradient>
    <linearGradient
       xlink:href="#linearGradient1697"
       gradientUnits="userSpaceOnUse"
       y2="238"
       y1="238"
       x2="108"
       x1="20"
       id="linearGradient1049" />
    <linearGradient
       xlink:href="#linearGradient1697"
       gradientUnits="userSpaceOnUse"
       gradientTransform="translate(2,-22)"
       y2="238"
       y1="238"
       x2="74"
       x1="50"
       id="linearGradient1185" />
    <linearGradient
       gradientUnits="userSpaceOnUse"
       y2="200"
       y1="204"
       x2="65"
       x1="65"
       id="linearGradient1348">
      <stop
         offset="0"
         style="stop-color:#9a9996"
         id="stop1241" />
      <stop
         offset="1"
         style="stop-color:#c0bfbc"
         id="stop1243" />
    </linearGradient>
    <radialGradient
       gradientTransform="matrix(0.232034,-0.541475,-0.368794,-0.0298398,123.62107,109.46779)"
       r="160"
       fy="55.927143"
       fx="131.914749"
       cy="55.927143"
       cx="131.914749"
       gradientUnits="userSpaceOnUse"
       id="radial0">
      <stop
         id="stop1407"
         style="stop-color:#26a269;stop-opacity:1"
         offset="0" />
      <stop
         id="stop1409"
         style="stop-color:#99c1f1;stop-opacity:1"
         offset="1" />
    </radialGradient>
    <radialGradient
       gradientTransform="matrix(-0.107656,-0.225172,-0.327748,0.258343,493.22305,20.714387)"
       r="192"
       fy="638.591797"
       fx="525.587769"
       cy="638.591797"
       cx="525.587769"
       gradientUnits="userSpaceOnUse"
       id="radial1">
      <stop
         id="stop1412"
         style="stop-color:rgb(10.980392%,44.313726%,84.705883%);stop-opacity:1;"
         offset="0" />
      <stop
         id="stop1414"
         style="stop-color:rgb(20.784314%,51.764709%,89.411765%);stop-opacity:0.00829876;"
         offset="1" />
    </radialGradient>
    <clipPath
       id="clip1">
      <path
         id="path1417"
         d="M 7 46 L 57 46 L 57 93 L 7 93 Z M 7 46 " />
    </clipPath>
    <clipPath
       id="clip2">
      <path
         id="path1420"
         d="M 32.25 46.957031 C 19.6875 46.96875 9.085938 56.636719 7.503906 69.53125 C 9.0625 82.445312 19.667969 92.144531 32.25 92.160156 C 44.816406 92.148438 55.414062 82.480469 57 69.585938 C 55.441406 56.671875 44.835938 46.972656 32.25 46.957031 Z M 32.25 46.957031 " />
    </clipPath>
    <radialGradient
       gradientTransform="matrix(0.485163,-1.148584,-0.771115,-0.0632965,63.477023,218.16177)"
       r="160"
       fy="55.927143"
       fx="131.914749"
       cy="55.927143"
       cx="131.914749"
       gradientUnits="userSpaceOnUse"
       id="radial2">
      <stop
         id="stop1423"
         style="stop-color:rgb(92.941177%,20%,23.137255%);stop-opacity:1;"
         offset="0" />
      <stop
         id="stop1425"
         style="stop-color:rgb(63.921571%,27.843139%,72.941178%);stop-opacity:1;"
         offset="1" />
    </radialGradient>
    <radialGradient
       gradientTransform="matrix(-0.225099,-0.477638,-0.685291,0.548001,564.99989,40.891657)"
       r="192"
       fy="638.591797"
       fx="525.587769"
       cy="638.591797"
       cx="525.587769"
       gradientUnits="userSpaceOnUse"
       id="radial3">
      <stop
         id="stop1428"
         style="stop-color:rgb(10.980392%,44.313726%,84.705883%);stop-opacity:1;"
         offset="0" />
      <stop
         id="stop1430"
         style="stop-color:rgb(20.784314%,51.764709%,89.411765%);stop-opacity:0.00829876;"
         offset="1" />
    </radialGradient>
    <linearGradient
       gradientTransform="matrix(1.4,0,0,1.4,92.543347,-6.9989545)"
       y2="37"
       x2="62"
       y1="37"
       x1="22"
       gradientUnits="userSpaceOnUse"
       id="linear0">
      <stop
         id="stop1433"
         style="stop-color:rgb(58.039218%,57.647061%,56.470591%);stop-opacity:1;"
         offset="0" />
      <stop
         id="stop1435"
         style="stop-color:rgb(87.058824%,86.666667%,85.490197%);stop-opacity:1;"
         offset="0.0908155" />
      <stop
         id="stop1437"
         style="stop-color:rgb(60.392159%,60.000002%,58.823532%);stop-opacity:1;"
         offset="0.336093" />
      <stop
         id="stop1439"
         style="stop-color:rgb(76.47059%,75.294119%,72.941178%);stop-opacity:1;"
         offset="0.844326" />
      <stop
         id="stop1441"
         style="stop-color:rgb(87.058824%,86.666667%,85.490197%);stop-opacity:1;"
         offset="0.930505" />
      <stop
         id="stop1443"
         style="stop-color:rgb(75.294119%,74.901962%,73.725492%);stop-opacity:1;"
         offset="1" />
    </linearGradient>
    <radialGradient
       gradientTransform="matrix(1.560712,0,0,1.4252,420.03698,3.8592965)"
       r="15.85742"
       fy="28.569126"
       fx="-172.560638"
       cy="28.569126"
       cx="-172.560638"
       gradientUnits="userSpaceOnUse"
       id="radial4">
      <stop
         id="stop1446"
         style="stop-color:rgb(100%,100%,100%);stop-opacity:0.358268;"
         offset="0" />
      <stop
         id="stop1448"
         style="stop-color:rgb(100%,100%,100%);stop-opacity:0.0944882;"
         offset="1" />
    </radialGradient>
    <filter
       height="100%"
       width="100%"
       y="0%"
       x="0%"
       filterUnits="objectBoundingBox"
       id="alpha">
      <feColorMatrix
         id="feColorMatrix1451"
         values="0 0 0 0 1 0 0 0 0 1 0 0 0 0 1 0 0 0 1 0"
         in="SourceGraphic"
         type="matrix" />
    </filter>
    <mask
       id="mask0">
      <g
         id="g1456"
         filter="url(#alpha)">
        <rect
           id="rect1454"
           style="fill:rgb(0%,0%,0%);fill-opacity:0.1;stroke:none;"
           height="128"
           width="128"
           y="0"
           x="0" />
      </g>
    </mask>
    <clipPath
       id="clip3">
      <rect
         id="rect1459"
         height="152"
         width="192"
         y="0"
         x="0" />
    </clipPath>
    <g
       clip-path="url(#clip3)"
       id="surface382">
      <path
         id="path1462"
         d="M 40 59.957031 C 26.191406 59.957031 15 71.152344 15 84.957031 C 15.011719 85.996094 15.085938 86.777344 15.222656 87.804688 C 15.222656 75.957031 27.421875 65.96875 40 65.957031 C 52.597656 65.972656 64.777344 75.957031 64.777344 87.859375 C 64.917969 86.816406 64.992188 86.011719 65 84.957031 C 65 71.152344 53.808594 59.957031 40 59.957031 Z M 40 59.957031 "
         style=" stroke:none;fill-rule:nonzero;fill:rgb(27.058825%,21.176471%,21.568628%);fill-opacity:1;" />
    </g>
    <radialGradient
       gradientTransform="matrix(0.575553,0,1.60551e-8,1.540703,128.32123,-290.27178)"
       r="28"
       fy="227"
       fx="40"
       cy="227"
       cx="40"
       gradientUnits="userSpaceOnUse"
       id="radial5">
      <stop
         id="stop1465"
         style="stop-color:rgb(100%,100%,100%);stop-opacity:1;"
         offset="0" />
      <stop
         id="stop1467"
         style="stop-color:rgb(98.039216%,98.039216%,98.039216%);stop-opacity:1;"
         offset="0.744626" />
      <stop
         id="stop1469"
         style="stop-color:rgb(87.450981%,87.450981%,87.450981%);stop-opacity:1;"
         offset="1" />
    </radialGradient>
    <linearGradient
       id="e-2"
       x1="28"
       x2="116"
       y1="-274"
       y2="-274"
       gradientTransform="translate(-136,172)"
       gradientUnits="userSpaceOnUse">
      <stop
         stop-color="#c0bfbc"
         offset="0"
         id="stop2-9"
         style="stop-color:#1a5fb4;stop-opacity:1" />
      <stop
         stop-color="#f6f5f4"
         offset=".045"
         id="stop4-1"
         style="stop-color:#62a0ea;stop-opacity:1" />
      <stop
         stop-color="#deddda"
         offset=".091"
         id="stop6-2"
         style="stop-color:#1a5fb4;stop-opacity:1" />
      <stop
         stop-color="#deddda"
         offset=".909"
         id="stop8-7"
         style="stop-color:#1a5fb4;stop-opacity:1" />
      <stop
         stop-color="#f6f5f4"
         offset=".955"
         id="stop10-0"
         style="stop-color:#62a0ea;stop-opacity:1" />
      <stop
         stop-color="#c0bfbc"
         offset="1"
         id="stop12-9"
         style="stop-color:#1a5fb4;stop-opacity:1" />
    </linearGradient>
    <radialGradient
       gradientUnits="userSpaceOnUse"
       gradientTransform="matrix(0.21429,0,0,0.32237,9.1429,245.59)"
       r="225"
       cy="-60.348"
       cx="106.67"
       id="radialGradient1018-3">
      <stop
         offset="0"
         style="stop-color:#50dbb5"
         id="stop6822-6" />
      <stop
         offset="1"
         style="stop-color:#4a86cf"
         id="stop6824-0" />
    </radialGradient>
    <radialGradient
       gradientUnits="userSpaceOnUse"
       gradientTransform="matrix(0.38857,0,0,0.52385,-35.474,148.05)"
       r="225"
       cy="218.28"
       cx="276.59"
       id="radialGradient1020-6">
      <stop
         offset="0"
         style="stop-color:#98c1f1"
         id="stop1030-2" />
      <stop
         offset="1"
         style="stop-color:#2dc0af;stop-opacity:.1378"
         id="stop1032-6" />
    </radialGradient>
    <radialGradient
       gradientUnits="userSpaceOnUse"
       gradientTransform="matrix(0.38857,0,0,0.27573,-35.474,-281.79)"
       r="225"
       cy="86.748"
       cx="317.76"
       id="radialGradient1038-1">
      <stop
         offset="0"
         style="stop-color:#1a5fb4"
         id="stop1040-8" />
      <stop
         offset="1"
         style="stop-color:#98c1f1;stop-opacity:0"
         id="stop1042-7" />
    </radialGradient>
    <radialGradient
       gradientTransform="matrix(0.232034,-0.541475,-0.368794,-0.0298398,123.62107,109.46779)"
       r="160"
       fy="55.927143"
       fx="131.914749"
       cy="55.927143"
       cx="131.914749"
       gradientUnits="userSpaceOnUse"
       id="radial0-6">
      <stop
         id="stop1407-1"
         style="stop-color:#26a269;stop-opacity:1"
         offset="0" />
      <stop
         id="stop1409-2"
         style="stop-color:#99c1f1;stop-opacity:1"
         offset="1" />
    </radialGradient>
    <radialGradient
       gradientTransform="matrix(-0.107656,-0.225172,-0.327748,0.258343,493.22305,20.714387)"
       r="192"
       fy="638.591797"
       fx="525.587769"
       cy="638.591797"
       cx="525.587769"
       gradientUnits="userSpaceOnUse"
       id="radial1-9">
      <stop
         id="stop1412-3"
         style="stop-color:rgb(10.980392%,44.313726%,84.705883%);stop-opacity:1;"
         offset="0" />
      <stop
         id="stop1414-1"
         style="stop-color:rgb(20.784314%,51.764709%,89.411765%);stop-opacity:0.00829876;"
         offset="1" />
    </radialGradient>
    <clipPath
       id="clip1-9">
      <path
         id="path1417-4"
         d="M 7 46 L 57 46 L 57 93 L 7 93 Z M 7 46 " />
    </clipPath>
    <clipPath
       id="clip2-7">
      <path
         id="path1420-8"
         d="M 32.25 46.957031 C 19.6875 46.96875 9.085938 56.636719 7.503906 69.53125 C 9.0625 82.445312 19.667969 92.144531 32.25 92.160156 C 44.816406 92.148438 55.414062 82.480469 57 69.585938 C 55.441406 56.671875 44.835938 46.972656 32.25 46.957031 Z M 32.25 46.957031 " />
    </clipPath>
    <radialGradient
       gradientTransform="matrix(0.485163,-1.148584,-0.771115,-0.0632965,63.477023,218.16177)"
       r="160"
       fy="55.927143"
       fx="131.914749"
       cy="55.927143"
       cx="131.914749"
       gradientUnits="userSpaceOnUse"
       id="radial2-4">
      <stop
         id="stop1423-5"
         style="stop-color:rgb(92.941177%,20%,23.137255%);stop-opacity:1;"
         offset="0" />
      <stop
         id="stop1425-0"
         style="stop-color:rgb(63.921571%,27.843139%,72.941178%);stop-opacity:1;"
         offset="1" />
    </radialGradient>
    <radialGradient
       gradientTransform="matrix(-0.225099,-0.477638,-0.685291,0.548001,564.99989,40.891657)"
       r="192"
       fy="638.591797"
       fx="525.587769"
       cy="638.591797"
       cx="525.587769"
       gradientUnits="userSpaceOnUse"
       id="radial3-3">
      <stop
         id="stop1428-6"
         style="stop-color:rgb(10.980392%,44.313726%,84.705883%);stop-opacity:1;"
         offset="0" />
      <stop
         id="stop1430-1"
         style="stop-color:rgb(20.784314%,51.764709%,89.411765%);stop-opacity:0.00829876;"
         offset="1" />
    </radialGradient>
    <radialGradient
       gradientTransform="matrix(1.560712,0,0,1.4252,420.03698,3.8592965)"
       r="15.85742"
       fy="28.569126"
       fx="-172.560638"
       cy="28.569126"
       cx="-172.560638"
       gradientUnits="userSpaceOnUse"
       id="radial4-1">
      <stop
         id="stop1446-5"
         style="stop-color:rgb(100%,100%,100%);stop-opacity:0.358268;"
         offset="0" />
      <stop
         id="stop1448-5"
         style="stop-color:rgb(100%,100%,100%);stop-opacity:0.0944882;"
         offset="1" />
    </radialGradient>
    <filter
       height="100%"
       width="100%"
       y="0%"
       x="0%"
       filterUnits="objectBoundingBox"
       id="alpha-4">
      <feColorMatrix
         id="feColorMatrix1451-7"
         values="0 0 0 0 1 0 0 0 0 1 0 0 0 0 1 0 0 0 1 0"
         in="SourceGraphic"
         type="matrix" />
    </filter>
    <mask
       id="mask0-6">
      <g
         style="filter:url(#alpha-4)"
         id="g1456-5"
         filter="url(#alpha)">
        <rect
           id="rect1454-6"
           style="fill:rgb(0%,0%,0%);fill-opacity:0.1;stroke:none;"
           height="128"
           width="128"
           y="0"
           x="0" />
      </g>
    </mask>
    <clipPath
       id="clip3-9">
      <rect
         id="rect1459-3"
         height="152"
         width="192"
         y="0"
         x="0" />
    </clipPath>
    <g
       clip-path="url(#clip3-9)"
       id="surface382-7">
      <path
         id="path1462-4"
         d="M 40 59.957031 C 26.191406 59.957031 15 71.152344 15 84.957031 C 15.011719 85.996094 15.085938 86.777344 15.222656 87.804688 C 15.222656 75.957031 27.421875 65.96875 40 65.957031 C 52.597656 65.972656 64.777344 75.957031 64.777344 87.859375 C 64.917969 86.816406 64.992188 86.011719 65 84.957031 C 65 71.152344 53.808594 59.957031 40 59.957031 Z M 40 59.957031 "
         style=" stroke:none;fill-rule:nonzero;fill:rgb(27.058825%,21.176471%,21.568628%);fill-opacity:1;" />
    </g>
    <radialGradient
       gradientTransform="matrix(0.575553,0,1.60551e-8,1.540703,128.32123,-290.27178)"
       r="28"
       fy="227"
       fx="40"
       cy="227"
       cx="40"
       gradientUnits="userSpaceOnUse"
       id="radial5-5">
      <stop
         id="stop1465-2"
         style="stop-color:rgb(100%,100%,100%);stop-opacity:1;"
         offset="0" />
      <stop
         id="stop1467-5"
         style="stop-color:rgb(98.039216%,98.039216%,98.039216%);stop-opacity:1;"
         offset="0.744626" />
      <stop
         id="stop1469-4"
         style="stop-color:rgb(87.450981%,87.450981%,87.450981%);stop-opacity:1;"
         offset="1" />
    </radialGradient>
    <linearGradient
       xlink:href="#linearGradient1344"
       id="linearGradient1346"
       x1="55.987096"
       y1="88.269111"
       x2="93.982467"
       y2="88.269111"
       gradientUnits="userSpaceOnUse" />
    <linearGradient
       xlink:href="#linearGradient1344"
       id="linearGradient1399"
       x1="60.088612"
       y1="70.026596"
       x2="67.840668"
       y2="85.40239"
       gradientUnits="userSpaceOnUse" />
  </defs>
  <rect
     id="rect17"
     fill="#deddda"
     rx="8"
     height="59"
     width="88"
     y="61"
     x="20" />
  <rect
     style="fill:url(#e)"
     id="rect19"
     fill="url(#e)"
     ry="8"
     rx="8"
     height="40"
     width="88"
     y="-120"
     x="-108"
     transform="scale(-1)" />
  <path
     id="rect21"
     style="fill:#9141ac"
     d="M 28 8 C 23.568 8 20 11.568 20 16 L 20 104 C 20 108.432 23.568 112 28 112 L 100 112 C 104.432 112 108 108.432 108 104 L 108 51.300781 C 108 49.179048 107.15654 47.142869 105.65625 45.642578 L 70.332031 10.34375 C 68.83174 8.8434589 66.797513 8.0000001 64.675781 8 L 28 8 z " />
  <path
     id="rect991"
     style="fill:#f6f5f4;stroke-width:0.916058"
     d="m 28,12 h 38 l 38,38 v 54 c 0,2.216 -1.784,4 -4,4 H 28 c -2.216,0 -4,-1.784 -4,-4 V 16 c 0,-2.216 1.784,-4 4,-4 z" />
  <path
     id="path47"
     style="font-variant-ligatures:normal;font-variant-position:normal;font-variant-caps:normal;font-variant-numeric:normal;font-variant-alternates:normal;font-feature-settings:normal;text-indent:0;text-decoration:none;text-decoration-line:none;text-decoration-style:solid;text-decoration-color:#000000;text-transform:none;text-orientation:mixed;white-space:normal;shape-padding:0;isolation:auto;mix-blend-mode:normal;stroke-width:0.547723"
     overflow="visible"
     font-weight="400"
     font-family="sans-serif"
     fill-rule="evenodd"
     fill="#77767b"
     d="m 34,28 v 4 h 12 v -4 z" />
  <path
     id="path51"
     fill-opacity="0.272"
     fill="#c0bfbc"
     d="M 108,108.654 A 7.468,7.468 0 0 1 100.508,116 h -0.5 v 1 h 0.5 a 8.488,8.488 0 0 0 7.463,-4.428 C 107.984,112.382 108,112.193 108,112 Z M 66,116 l 34,1 v -1 z"
     style="fill:#000000;fill-opacity:0.27200001" />
  <path
     id="circle1388"
     style="fill:#9141ac;stroke-width:7.70256;stroke-linecap:round"
     d="m 84,8 c -1.617849,0 -3.076189,0.9740526 -3.695312,2.46875 -0.619124,1.494698 -0.276805,3.215383 0.867187,4.359375 l 20.000005,20 c 1.14399,1.143992 2.86467,1.486311 4.35937,0.867187 C 107.02595,35.076189 108,33.61785 108,32 V 12 c 0,-2.216 -1.784,-4 -4,-4 z" />
  <path
     d="m 34,36 v 4 h 12 v -4 z"
     fill="#77767b"
     fill-rule="evenodd"
     font-family="sans-serif"
     font-weight="400"
     overflow="visible"
     style="font-variant-ligatures:normal;font-variant-position:normal;font-variant-caps:normal;font-variant-numeric:normal;font-variant-alternates:normal;font-feature-settings:normal;text-indent:0;text-decoration:none;text-decoration-line:none;text-decoration-style:solid;text-decoration-color:#000000;text-transform:none;text-orientation:mixed;white-space:normal;shape-padding:0;isolation:auto;mix-blend-mode:normal;stroke-width:0.547723;fill:#c0bfbc"
     id="path927" />
  <path
     id="path929"
     style="font-variant-ligatures:normal;font-variant-position:normal;font-variant-caps:normal;font-variant-numeric:normal;font-variant-alternates:normal;font-feature-settings:normal;text-indent:0;text-decoration:none;text-decoration-line:none;text-decoration-style:solid;text-decoration-color:#000000;text-transform:none;text-orientation:mixed;white-space:normal;shape-padding:0;isolation:auto;mix-blend-mode:normal;stroke-width:0.547723;fill:#c0bfbc"
     overflow="visible"
     font-weight="400"
     font-family="sans-serif"
     fill-rule="evenodd"
     fill="#77767b"
     d="m 50,36 v 4 h 12 v -4 z" />
  <path
     d="m 66,36 v 4 h 12 v -4 z"
     fill="#77767b"
     fill-rule="evenodd"
     font-family="sans-serif"
     font-weight="400"
     overflow="visible"
     style="font-variant-ligatures:normal;font-variant-position:normal;font-variant-caps:normal;font-variant-numeric:normal;font-variant-alternates:normal;font-feature-settings:normal;text-indent:0;text-decoration:none;text-decoration-line:none;text-decoration-style:solid;text-decoration-color:#000000;text-transform:none;text-orientation:mixed;white-space:normal;shape-padding:0;isolation:auto;mix-blend-mode:normal;stroke-width:0.547723;fill:#c0bfbc"
     id="path931" />
  <path
     id="path935"
     style="font-variant-ligatures:normal;font-variant-position:normal;font-variant-caps:normal;font-variant-numeric:normal;font-variant-alternates:normal;font-feature-settings:normal;text-indent:0;text-decoration:none;text-decoration-line:none;text-decoration-style:solid;text-decoration-color:#000000;text-transform:none;text-orientation:mixed;white-space:normal;shape-padding:0;isolation:auto;mix-blend-mode:normal;stroke-width:0.547723;fill:#c0bfbc"
     overflow="visible"
     font-weight="400"
     font-family="sans-serif"
     fill-rule="evenodd"
     fill="#77767b"
     d="m 34,44 v 4 h 12 v -4 z" />
  <path
     d="m 50,44 v 4 h 12 v -4 z"
     fill="#77767b"
     fill-rule="evenodd"
     font-family="sans-serif"
     font-weight="400"
     overflow="visible"
     style="font-variant-ligatures:normal;font-variant-position:normal;font-variant-caps:normal;font-variant-numeric:normal;font-variant-alternates:normal;font-feature-settings:normal;text-indent:0;text-decoration:none;text-decoration-line:none;text-decoration-style:solid;text-decoration-color:#000000;text-transform:none;text-orientation:mixed;white-space:normal;shape-padding:0;isolation:auto;mix-blend-mode:normal;stroke-width:0.547723;fill:#c0bfbc"
     id="path937" />
  <path
     id="path939"
     style="font-variant-ligatures:normal;font-variant-position:normal;font-variant-caps:normal;font-variant-numeric:normal;font-variant-alternates:normal;font-feature-settings:normal;text-indent:0;text-decoration:none;text-decoration-line:none;text-decoration-style:solid;text-decoration-color:#000000;text-transform:none;text-orientation:mixed;white-space:normal;shape-padding:0;isolation:auto;mix-blend-mode:normal;stroke-width:0.547723;fill:#c0bfbc"
     overflow="visible"
     font-weight="400"
     font-family="sans-serif"
     fill-rule="evenodd"
     fill="#77767b"
     d="m 66,44 v 4 h 12 v -4 z" />
  <path
     d="m 82,44 v 4 h 12 v -4 z"
     fill="#77767b"
     fill-rule="evenodd"
     font-family="sans-serif"
     font-weight="400"
     overflow="visible"
     style="font-variant-ligatures:normal;font-variant-position:normal;font-variant-caps:normal;font-variant-numeric:normal;font-variant-alternates:normal;font-feature-settings:normal;text-indent:0;text-decoration:none;text-decoration-line:none;text-decoration-style:solid;text-decoration-color:#000000;text-transform:none;text-orientation:mixed;white-space:normal;shape-padding:0;isolation:auto;mix-blend-mode:normal;stroke-width:0.547723;fill:#c0bfbc"
     id="path941" />
  <path
     d="m 34,52 v 4 h 12 v -4 z"
     fill="#77767b"
     fill-rule="evenodd"
     font-family="sans-serif"
     font-weight="400"
     overflow="visible"
     style="font-variant-ligatures:normal;font-variant-position:normal;font-variant-caps:normal;font-variant-numeric:normal;font-variant-alternates:normal;font-feature-settings:normal;text-indent:0;text-decoration:none;text-decoration-line:none;text-decoration-style:solid;text-decoration-color:#000000;text-transform:none;text-orientation:mixed;white-space:normal;shape-padding:0;isolation:auto;mix-blend-mode:normal;stroke-width:0.547723;fill:#c0bfbc"
     id="path943" />
  <path
     id="path945"
     style="font-variant-ligatures:normal;font-variant-position:normal;font-variant-caps:normal;font-variant-numeric:normal;font-variant-alternates:normal;font-feature-settings:normal;text-indent:0;text-decoration:none;text-decoration-line:none;text-decoration-style:solid;text-decoration-color:#000000;text-transform:none;text-orientation:mixed;white-space:normal;shape-padding:0;isolation:auto;mix-blend-mode:normal;stroke-width:0.547723;fill:#c0bfbc"
     overflow="visible"
     font-weight="400"
     font-family="sans-serif"
     fill-rule="evenodd"
     fill="#77767b"
     d="m 50,52 v 4 h 12 v -4 z" />
  <path
     d="m 66,52 v 4 h 12 v -4 z"
     fill="#77767b"
     fill-rule="evenodd"
     font-family="sans-serif"
     font-weight="400"
     overflow="visible"
     style="font-variant-ligatures:normal;font-variant-position:normal;font-variant-caps:normal;font-variant-numeric:normal;font-variant-alternates:normal;font-feature-settings:normal;text-indent:0;text-decoration:none;text-decoration-line:none;text-decoration-style:solid;text-decoration-color:#000000;text-transform:none;text-orientation:mixed;white-space:normal;shape-padding:0;isolation:auto;mix-blend-mode:normal;stroke-width:0.547723;fill:#c0bfbc"
     id="path947" />
  <path
     id="path949"
     style="font-variant-ligatures:normal;font-variant-position:normal;font-variant-caps:normal;font-variant-numeric:normal;font-variant-alternates:normal;font-feature-settings:normal;text-indent:0;text-decoration:none;text-decoration-line:none;text-decoration-style:solid;text-decoration-color:#000000;text-transform:none;text-orientation:mixed;white-space:normal;shape-padding:0;isolation:auto;mix-blend-mode:normal;stroke-width:0.547723;fill:#c0bfbc"
     overflow="visible"
     font-weight="400"
     font-family="sans-serif"
     fill-rule="evenodd"
     fill="#77767b"
     d="m 82,52 v 4 h 12 v -4 z" />
  <path
     id="path951"
     style="font-variant-ligatures:normal;font-variant-position:normal;font-variant-caps:normal;font-variant-numeric:normal;font-variant-alternates:normal;font-feature-settings:normal;text-indent:0;text-decoration:none;text-decoration-line:none;text-decoration-style:solid;text-decoration-color:#000000;text-transform:none;text-orientation:mixed;white-space:normal;shape-padding:0;isolation:auto;mix-blend-mode:normal;stroke-width:0.547723;fill:#c0bfbc"
     overflow="visible"
     font-weight="400"
     font-family="sans-serif"
     fill-rule="evenodd"
     fill="#77767b"
     d="m 34,60 v 4 h 12 v -4 z" />
  <path
     d="m 34,68 v 4 h 12 v -4 z"
     fill="#77767b"
     fill-rule="evenodd"
     font-family="sans-serif"
     font-weight="400"
     overflow="visible"
     style="font-variant-ligatures:normal;font-variant-position:normal;font-variant-caps:normal;font-variant-numeric:normal;font-variant-alternates:normal;font-feature-settings:normal;text-indent:0;text-decoration:none;text-decoration-line:none;text-decoration-style:solid;text-decoration-color:#000000;text-transform:none;text-orientation:mixed;white-space:normal;shape-padding:0;isolation:auto;mix-blend-mode:normal;stroke-width:0.547723;fill:#c0bfbc"
     id="path959" />
  <path
     id="path967"
     style="font-variant-ligatures:normal;font-variant-position:normal;font-variant-caps:normal;font-variant-numeric:normal;font-variant-alternates:normal;font-feature-settings:normal;text-indent:0;text-decoration:none;text-decoration-line:none;text-decoration-style:solid;text-decoration-color:#000000;text-transform:none;text-orientation:mixed;white-space:normal;shape-padding:0;isolation:auto;mix-blend-mode:normal;stroke-width:0.547723;fill:#c0bfbc"
     overflow="visible"
     font-weight="400"
     font-family="sans-serif"
     fill-rule="evenodd"
     fill="#77767b"
     d="m 34,76 v 4 h 12 v -4 z" />
  <path
     d="m 50,28 v 4 h 12 v -4 z"
     fill="#77767b"
     fill-rule="evenodd"
     font-family="sans-serif"
     font-weight="400"
     overflow="visible"
     style="font-variant-ligatures:normal;font-variant-position:normal;font-variant-caps:normal;font-variant-numeric:normal;font-variant-alternates:normal;font-feature-settings:normal;text-indent:0;text-decoration:none;text-decoration-line:none;text-decoration-style:solid;text-decoration-color:#000000;text-transform:none;text-orientation:mixed;white-space:normal;shape-padding:0;isolation:auto;mix-blend-mode:normal;stroke-width:0.547723"
     id="path975" />
  <path
     id="path977"
     style="font-variant-ligatures:normal;font-variant-position:normal;font-variant-caps:normal;font-variant-numeric:normal;font-variant-alternates:normal;font-feature-settings:normal;text-indent:0;text-decoration:none;text-decoration-line:none;text-decoration-style:solid;text-decoration-color:#000000;text-transform:none;text-orientation:mixed;white-space:normal;shape-padding:0;isolation:auto;mix-blend-mode:normal;stroke-width:0.547723"
     overflow="visible"
     font-weight="400"
     font-family="sans-serif"
     fill-rule="evenodd"
     fill="#77767b"
     d="m 66,28 v 4 h 12 v -4 z" />
  <path
     d="m 34,84 v 4 h 12 v -4 z"
     fill="#77767b"
     fill-rule="evenodd"
     font-family="sans-serif"
     font-weight="400"
     overflow="visible"
     style="font-variant-ligatures:normal;font-variant-position:normal;font-variant-caps:normal;font-variant-numeric:normal;font-variant-alternates:normal;font-feature-settings:normal;text-indent:0;text-decoration:none;text-decoration-line:none;text-decoration-style:solid;text-decoration-color:#000000;text-transform:none;text-orientation:mixed;white-space:normal;shape-padding:0;isolation:auto;mix-blend-mode:normal;stroke-width:0.547723;fill:#c0bfbc"
     id="path1257" />
  <g
     id="g1416"
     transform="matrix(0.9984607,0,0,1.0187784,0.14469403,-1.8778411)">
    <path
       d="m 56,77.056578 c 2.65732,2.006008 6.325008,2.406151 9.659207,2.914895 6.508555,0.846085 13.168172,0.782033 19.670373,-0.0742 2.9027,-0.504872 5.986158,-1.004184 8.373141,-2.634095 0.505788,-0.421562 0.149294,0.882083 0.255711,1.25956 -0.04621,1.290122 0.106852,2.082285 -0.107377,3.355672 -0.953342,1.398272 -2.954024,1.821864 -4.594742,2.342934 C 81.786831,85.950376 73.915891,86.073032 66.28104,85.226292 63.129614,84.799507 59.840691,84.332734 57.105471,82.809753 55.941566,82.309878 56,81.180476 56,80.220125 Z m 0,7.176362 c 2.759516,2.007718 6.495405,2.436855 9.91971,2.953997 6.341323,0.796733 12.817466,0.684175 19.150542,-0.112072 2.871071,-0.452076 5.849722,-1.003717 8.314458,-2.431602 0.864871,-0.932812 0.500753,0.369995 0.574123,0.893287 -0.04782,1.340334 0.109504,2.142073 -0.107907,3.465307 -0.980879,1.383176 -2.941158,1.835236 -4.594994,2.349523 C 83.101131,92.813435 76.63681,93.058196 70.296497,92.726374 65.966221,92.310202 61.449453,92.008597 57.533776,90.191464 55.480791,89.439319 56,87.36526 56,85.826689 Z m 0,7.062981 c 2.718563,1.938555 5.111522,2.107079 7.806236,2.654827 7.0737,1.116266 14.365689,1.085653 21.463855,0.148742 2.934947,-0.485174 6.035778,-1.013276 8.464342,-2.624852 0.455484,-0.326339 0.122427,0.911667 0.223996,1.287443 -0.04693,1.268384 0.09748,2.072459 -0.07894,3.327327 -1.024031,1.518389 -3.191017,1.960219 -4.972962,2.489016 C 82.374833,100.08996 75.517752,100.23419 68.815371,99.75775 64.973583,99.388925 60.994974,98.9556 57.542363,97.331669 56.503786,96.905915 56,96.02356 56,95.000824 Z"
       style="fill:url(#linearGradient1346);fill-opacity:1;stroke-width:0.378779"
       id="path1268" />
    <ellipse
       ry="4"
       rx="19"
       cy="74.552971"
       cx="75"
       id="path1286"
       style="fill:url(#linearGradient1399);fill-opacity:1;stroke-width:12.8495;stroke-linecap:round;stroke-linejoin:round;paint-order:stroke fill markers" />
  </g>
  <path
     d="m 50,60 v 4 h 12 v -4 z"
     fill="#77767b"
     fill-rule="evenodd"
     font-family="sans-serif"
     font-weight="400"
     overflow="visible"
     style="font-variant-ligatures:normal;font-variant-position:normal;font-variant-caps:normal;font-variant-numeric:normal;font-variant-alternates:normal;font-feature-settings:normal;text-indent:0;text-decoration:none;text-decoration-line:none;text-decoration-style:solid;text-decoration-color:#000000;text-transform:none;text-orientation:mixed;white-space:normal;shape-padding:0;isolation:auto;mix-blend-mode:normal;stroke-width:0.547723;fill:#c0bfbc"
     id="path1318" />
  <path
     id="path1320"
     style="font-variant-ligatures:normal;font-variant-position:normal;font-variant-caps:normal;font-variant-numeric:normal;font-variant-alternates:normal;font-feature-settings:normal;text-indent:0;text-decoration:none;text-decoration-line:none;text-decoration-style:solid;text-decoration-color:#000000;text-transform:none;text-orientation:mixed;white-space:normal;shape-padding:0;isolation:auto;mix-blend-mode:normal;stroke-width:0.547723;fill:#c0bfbc"
     overflow="visible"
     font-weight="400"
     font-family="sans-serif"
     fill-rule="evenodd"
     fill="#77767b"
     d="m 66,60 v 4 h 12 v -4 z" />
  <path
     d="m 82,60 v 4 h 12 v -4 z"
     fill="#77767b"
     fill-rule="evenodd"
     font-family="sans-serif"
     font-weight="400"
     overflow="visible"
     style="font-variant-ligatures:normal;font-variant-position:normal;font-variant-caps:normal;font-variant-numeric:normal;font-variant-alternates:normal;font-feature-settings:normal;text-indent:0;text-decoration:none;text-decoration-line:none;text-decoration-style:solid;text-decoration-color:#000000;text-transform:none;text-orientation:mixed;white-space:normal;shape-padding:0;isolation:auto;mix-blend-mode:normal;stroke-width:0.547723;fill:#c0bfbc"
     id="path1322" />
</svg>
