<?xml version="1.0" encoding="UTF-8" standalone="no"?>
<svg
   xmlns:dc="http://purl.org/dc/elements/1.1/"
   xmlns:cc="http://creativecommons.org/ns#"
   xmlns:rdf="http://www.w3.org/1999/02/22-rdf-syntax-ns#"
   xmlns:svg="http://www.w3.org/2000/svg"
   xmlns="http://www.w3.org/2000/svg"
   xmlns:xlink="http://www.w3.org/1999/xlink"
   width="128"
   height="128"
   version="1.0"
   id="svg55">
  <metadata
     id="metadata59">
    <rdf:RDF>
      <cc:Work
         rdf:about="">
        <dc:format>image/svg+xml</dc:format>
        <dc:type
           rdf:resource="http://purl.org/dc/dcmitype/StillImage" />
        <dc:title></dc:title>
      </cc:Work>
    </rdf:RDF>
  </metadata>
  <defs
     id="defs15">
    <radialGradient
       id="radialGradient1002"
       gradientUnits="userSpaceOnUse"
       cx="131.914749"
       cy="55.927143"
       fx="131.914749"
       fy="55.927143"
       r="160"
       gradientTransform="matrix(0.232034,-0.541475,-0.368794,-0.0298398,123.62107,109.46779)">
      <stop
         offset="0"
         style="stop-color:#57e389;stop-opacity:1"
         id="stop998" />
      <stop
         offset="1"
         style="stop-color:#99c1f1;stop-opacity:1"
         id="stop1000" />
    </radialGradient>
    <radialGradient
       id="radialGradient996"
       gradientUnits="userSpaceOnUse"
       cx="131.914749"
       cy="55.927143"
       fx="131.914749"
       fy="55.927143"
       r="160"
       gradientTransform="matrix(0.232034,-0.541475,-0.368794,-0.0298398,123.62107,109.46779)">
      <stop
         offset="0"
         style="stop-color:#a51d2d;stop-opacity:1"
         id="stop992" />
      <stop
         offset="1"
         style="stop-color:#dc8add;stop-opacity:1"
         id="stop994" />
    </radialGradient>
    <radialGradient
       id="radialGradient990"
       gradientUnits="userSpaceOnUse"
       cx="525.587769"
       cy="638.591797"
       fx="525.587769"
       fy="638.591797"
       r="192"
       gradientTransform="matrix(-0.107656,-0.225172,-0.327748,0.258343,493.22305,20.714387)">
      <stop
         offset="0"
         style="stop-color:#613583;stop-opacity:1"
         id="stop986" />
      <stop
         offset="1"
         style="stop-color:#613583;stop-opacity:0"
         id="stop988" />
    </radialGradient>
    <radialGradient
       id="radialGradient984"
       gradientUnits="userSpaceOnUse"
       cx="525.587769"
       cy="638.591797"
       fx="525.587769"
       fy="638.591797"
       r="192"
       gradientTransform="matrix(-0.107656,-0.225172,-0.327748,0.258343,493.22305,20.714387)">
      <stop
         offset="0"
         style="stop-color:#26a269;stop-opacity:1"
         id="stop980" />
      <stop
         offset="1"
         style="stop-color:#26a269;stop-opacity:0"
         id="stop982" />
    </radialGradient>
    <radialGradient
       id="radialGradient978"
       gradientUnits="userSpaceOnUse"
       cx="131.914749"
       cy="55.927143"
       fx="131.914749"
       fy="55.927143"
       r="160"
       gradientTransform="matrix(0.232034,-0.541475,-0.368794,-0.0298398,123.62107,109.46779)">
      <stop
         offset="0"
         style="stop-color:#f9f06b;stop-opacity:1"
         id="stop974" />
      <stop
         offset="1"
         style="stop-color:#2ec27e;stop-opacity:1"
         id="stop976" />
    </radialGradient>
    <radialGradient
       id="radialGradient972"
       gradientUnits="userSpaceOnUse"
       cx="131.914749"
       cy="55.927143"
       fx="131.914749"
       fy="55.927143"
       r="160"
       gradientTransform="matrix(0.232034,-0.541475,-0.368794,-0.0298398,123.62107,109.46779)">
      <stop
         offset="0"
         style="stop-color:#e5a50a;stop-opacity:1"
         id="stop968" />
      <stop
         offset="1"
         style="stop-color:#f9f06b;stop-opacity:1"
         id="stop970" />
    </radialGradient>
    <radialGradient
       id="radialGradient966"
       gradientUnits="userSpaceOnUse"
       cx="525.587769"
       cy="638.591797"
       fx="525.587769"
       fy="638.591797"
       r="192"
       gradientTransform="matrix(-0.107656,-0.225172,-0.327748,0.258343,493.22305,20.714387)">
      <stop
         offset="0"
         style="stop-color:#e66100;stop-opacity:1"
         id="stop962" />
      <stop
         offset="1"
         style="stop-color:#e66100;stop-opacity:0"
         id="stop964" />
    </radialGradient>
    <radialGradient
       id="radialGradient1167"
       gradientUnits="userSpaceOnUse"
       cx="525.587769"
       cy="638.591797"
       fx="525.587769"
       fy="638.591797"
       r="192"
       gradientTransform="matrix(-0.107656,-0.225172,-0.327748,0.258343,493.22305,20.714387)">
      <stop
         offset="0"
         style="stop-color:#c01c28;stop-opacity:1"
         id="stop1163" />
      <stop
         offset="1"
         style="stop-color:#f66151;stop-opacity:0.0337426"
         id="stop1165" />
    </radialGradient>
    <radialGradient
       id="radialGradient1161"
       gradientUnits="userSpaceOnUse"
       cx="131.914749"
       cy="55.927143"
       fx="131.914749"
       fy="55.927143"
       r="160"
       gradientTransform="matrix(0.232034,-0.541475,-0.368794,-0.0298398,123.62107,109.46779)">
      <stop
         offset="0"
         style="stop-color:#e66100;stop-opacity:1"
         id="stop1157" />
      <stop
         offset="1"
         style="stop-color:#ffbe6f;stop-opacity:1"
         id="stop1159" />
    </radialGradient>
    <linearGradient
       id="e"
       x1="28"
       x2="116"
       y1="-274"
       y2="-274"
       gradientTransform="translate(-136,172)"
       gradientUnits="userSpaceOnUse">
      <stop
         stop-color="#c0bfbc"
         offset="0"
         id="stop2"
         style="stop-color:#241f31;stop-opacity:1" />
      <stop
         stop-color="#f6f5f4"
         offset=".045"
         id="stop4"
         style="stop-color:#77767b;stop-opacity:1" />
      <stop
         stop-color="#deddda"
         offset=".091"
         id="stop6"
         style="stop-color:#3d3846;stop-opacity:1" />
      <stop
         stop-color="#deddda"
         offset=".909"
         id="stop8"
         style="stop-color:#3d3846;stop-opacity:1" />
      <stop
         stop-color="#f6f5f4"
         offset=".955"
         id="stop10"
         style="stop-color:#5e5c64;stop-opacity:1" />
      <stop
         stop-color="#c0bfbc"
         offset="1"
         id="stop12"
         style="stop-color:#241f31;stop-opacity:1" />
    </linearGradient>
    <radialGradient
       gradientUnits="userSpaceOnUse"
       gradientTransform="matrix(0.21429,0,0,0.32237,9.1429,245.59)"
       r="225"
       cy="-60.348"
       cx="106.67"
       id="radialGradient1018">
      <stop
         offset="0"
         style="stop-color:#50dbb5"
         id="stop6822" />
      <stop
         offset="1"
         style="stop-color:#4a86cf"
         id="stop6824" />
    </radialGradient>
    <radialGradient
       gradientUnits="userSpaceOnUse"
       gradientTransform="matrix(0.38857,0,0,0.52385,-35.474,148.05)"
       r="225"
       cy="218.28"
       cx="276.59"
       id="radialGradient1020">
      <stop
         offset="0"
         style="stop-color:#98c1f1"
         id="stop1030" />
      <stop
         offset="1"
         style="stop-color:#2dc0af;stop-opacity:.1378"
         id="stop1032" />
    </radialGradient>
    <radialGradient
       gradientUnits="userSpaceOnUse"
       gradientTransform="matrix(0.38857,0,0,0.27573,-35.474,-281.79)"
       r="225"
       cy="86.748"
       cx="317.76"
       id="radialGradient1038">
      <stop
         offset="0"
         style="stop-color:#1a5fb4"
         id="stop1040" />
      <stop
         offset="1"
         style="stop-color:#98c1f1;stop-opacity:0"
         id="stop1042" />
    </radialGradient>
    <linearGradient
       gradientUnits="userSpaceOnUse"
       gradientTransform="matrix(0.25,0,0,0.25,-14.149,400.35)"
       y2="-449.39"
       y1="-449.39"
       x2="536.6"
       x1="88.596"
       id="linearGradient1064">
      <stop
         offset="0"
         style="stop-color:#77767b"
         id="stop1066" />
      <stop
         offset=".035714"
         style="stop-color:#c0bfbc"
         id="stop1068" />
      <stop
         offset=".071365"
         style="stop-color:#9a9996"
         id="stop1070" />
      <stop
         offset=".92857"
         style="stop-color:#9a9996"
         id="stop1072" />
      <stop
         offset=".96429"
         style="stop-color:#c0bfbc"
         id="stop1074" />
      <stop
         offset="1"
         style="stop-color:#77767b"
         id="stop1076" />
    </linearGradient>
    <linearGradient
       id="linearGradient1697">
      <stop
         offset="0"
         style="stop-color:#deddda"
         id="stop1685" />
      <stop
         offset=".045455"
         style="stop-color:#eeeeec"
         id="stop1687" />
      <stop
         offset=".090909"
         style="stop-color:#deddda"
         id="stop1689" />
      <stop
         offset=".90909"
         style="stop-color:#deddda"
         id="stop1691" />
      <stop
         offset=".95455"
         style="stop-color:#eeeeec"
         id="stop1693" />
      <stop
         offset="1"
         style="stop-color:#c0bfbc"
         id="stop1695" />
    </linearGradient>
    <linearGradient
       xlink:href="#linearGradient1697"
       gradientUnits="userSpaceOnUse"
       y2="238"
       y1="238"
       x2="108"
       x1="20"
       id="linearGradient1049" />
    <linearGradient
       xlink:href="#linearGradient1697"
       gradientUnits="userSpaceOnUse"
       gradientTransform="translate(2,-22)"
       y2="238"
       y1="238"
       x2="74"
       x1="50"
       id="linearGradient1185" />
    <linearGradient
       gradientUnits="userSpaceOnUse"
       y2="200"
       y1="204"
       x2="65"
       x1="65"
       id="linearGradient1348">
      <stop
         offset="0"
         style="stop-color:#9a9996"
         id="stop1241" />
      <stop
         offset="1"
         style="stop-color:#c0bfbc"
         id="stop1243" />
    </linearGradient>
    <radialGradient
       gradientTransform="matrix(0.232034,-0.541475,-0.368794,-0.0298398,123.62107,109.46779)"
       r="160"
       fy="55.927143"
       fx="131.914749"
       cy="55.927143"
       cx="131.914749"
       gradientUnits="userSpaceOnUse"
       id="radial0">
      <stop
         id="stop1407"
         style="stop-color:#26a269;stop-opacity:1"
         offset="0" />
      <stop
         id="stop1409"
         style="stop-color:#99c1f1;stop-opacity:1"
         offset="1" />
    </radialGradient>
    <radialGradient
       gradientTransform="matrix(-0.107656,-0.225172,-0.327748,0.258343,493.22305,20.714387)"
       r="192"
       fy="638.591797"
       fx="525.587769"
       cy="638.591797"
       cx="525.587769"
       gradientUnits="userSpaceOnUse"
       id="radial1">
      <stop
         id="stop1412"
         style="stop-color:rgb(10.980392%,44.313726%,84.705883%);stop-opacity:1;"
         offset="0" />
      <stop
         id="stop1414"
         style="stop-color:rgb(20.784314%,51.764709%,89.411765%);stop-opacity:0.00829876;"
         offset="1" />
    </radialGradient>
    <clipPath
       id="clip1">
      <path
         id="path1417"
         d="M 7 46 L 57 46 L 57 93 L 7 93 Z M 7 46 " />
    </clipPath>
    <clipPath
       id="clip2">
      <path
         id="path1420"
         d="M 32.25 46.957031 C 19.6875 46.96875 9.085938 56.636719 7.503906 69.53125 C 9.0625 82.445312 19.667969 92.144531 32.25 92.160156 C 44.816406 92.148438 55.414062 82.480469 57 69.585938 C 55.441406 56.671875 44.835938 46.972656 32.25 46.957031 Z M 32.25 46.957031 " />
    </clipPath>
    <radialGradient
       gradientTransform="matrix(0.485163,-1.148584,-0.771115,-0.0632965,63.477023,218.16177)"
       r="160"
       fy="55.927143"
       fx="131.914749"
       cy="55.927143"
       cx="131.914749"
       gradientUnits="userSpaceOnUse"
       id="radial2">
      <stop
         id="stop1423"
         style="stop-color:rgb(92.941177%,20%,23.137255%);stop-opacity:1;"
         offset="0" />
      <stop
         id="stop1425"
         style="stop-color:rgb(63.921571%,27.843139%,72.941178%);stop-opacity:1;"
         offset="1" />
    </radialGradient>
    <radialGradient
       gradientTransform="matrix(-0.225099,-0.477638,-0.685291,0.548001,564.99989,40.891657)"
       r="192"
       fy="638.591797"
       fx="525.587769"
       cy="638.591797"
       cx="525.587769"
       gradientUnits="userSpaceOnUse"
       id="radial3">
      <stop
         id="stop1428"
         style="stop-color:rgb(10.980392%,44.313726%,84.705883%);stop-opacity:1;"
         offset="0" />
      <stop
         id="stop1430"
         style="stop-color:rgb(20.784314%,51.764709%,89.411765%);stop-opacity:0.00829876;"
         offset="1" />
    </radialGradient>
    <linearGradient
       gradientTransform="matrix(1.4,0,0,1.4,92.543347,-6.9989545)"
       y2="37"
       x2="62"
       y1="37"
       x1="22"
       gradientUnits="userSpaceOnUse"
       id="linear0">
      <stop
         id="stop1433"
         style="stop-color:rgb(58.039218%,57.647061%,56.470591%);stop-opacity:1;"
         offset="0" />
      <stop
         id="stop1435"
         style="stop-color:rgb(87.058824%,86.666667%,85.490197%);stop-opacity:1;"
         offset="0.0908155" />
      <stop
         id="stop1437"
         style="stop-color:rgb(60.392159%,60.000002%,58.823532%);stop-opacity:1;"
         offset="0.336093" />
      <stop
         id="stop1439"
         style="stop-color:rgb(76.47059%,75.294119%,72.941178%);stop-opacity:1;"
         offset="0.844326" />
      <stop
         id="stop1441"
         style="stop-color:rgb(87.058824%,86.666667%,85.490197%);stop-opacity:1;"
         offset="0.930505" />
      <stop
         id="stop1443"
         style="stop-color:rgb(75.294119%,74.901962%,73.725492%);stop-opacity:1;"
         offset="1" />
    </linearGradient>
    <radialGradient
       gradientTransform="matrix(1.560712,0,0,1.4252,420.03698,3.8592965)"
       r="15.85742"
       fy="28.569126"
       fx="-172.560638"
       cy="28.569126"
       cx="-172.560638"
       gradientUnits="userSpaceOnUse"
       id="radial4">
      <stop
         id="stop1446"
         style="stop-color:rgb(100%,100%,100%);stop-opacity:0.358268;"
         offset="0" />
      <stop
         id="stop1448"
         style="stop-color:rgb(100%,100%,100%);stop-opacity:0.0944882;"
         offset="1" />
    </radialGradient>
    <filter
       height="100%"
       width="100%"
       y="0%"
       x="0%"
       filterUnits="objectBoundingBox"
       id="alpha">
      <feColorMatrix
         id="feColorMatrix1451"
         values="0 0 0 0 1 0 0 0 0 1 0 0 0 0 1 0 0 0 1 0"
         in="SourceGraphic"
         type="matrix" />
    </filter>
    <mask
       id="mask0">
      <g
         id="g1456"
         filter="url(#alpha)">
        <rect
           id="rect1454"
           style="fill:rgb(0%,0%,0%);fill-opacity:0.1;stroke:none;"
           height="128"
           width="128"
           y="0"
           x="0" />
      </g>
    </mask>
    <clipPath
       id="clip3">
      <rect
         id="rect1459"
         height="152"
         width="192"
         y="0"
         x="0" />
    </clipPath>
    <g
       clip-path="url(#clip3)"
       id="surface382">
      <path
         id="path1462"
         d="M 40 59.957031 C 26.191406 59.957031 15 71.152344 15 84.957031 C 15.011719 85.996094 15.085938 86.777344 15.222656 87.804688 C 15.222656 75.957031 27.421875 65.96875 40 65.957031 C 52.597656 65.972656 64.777344 75.957031 64.777344 87.859375 C 64.917969 86.816406 64.992188 86.011719 65 84.957031 C 65 71.152344 53.808594 59.957031 40 59.957031 Z M 40 59.957031 "
         style=" stroke:none;fill-rule:nonzero;fill:rgb(27.058825%,21.176471%,21.568628%);fill-opacity:1;" />
    </g>
    <radialGradient
       gradientTransform="matrix(0.575553,0,1.60551e-8,1.540703,128.32123,-290.27178)"
       r="28"
       fy="227"
       fx="40"
       cy="227"
       cx="40"
       gradientUnits="userSpaceOnUse"
       id="radial5">
      <stop
         id="stop1465"
         style="stop-color:rgb(100%,100%,100%);stop-opacity:1;"
         offset="0" />
      <stop
         id="stop1467"
         style="stop-color:rgb(98.039216%,98.039216%,98.039216%);stop-opacity:1;"
         offset="0.744626" />
      <stop
         id="stop1469"
         style="stop-color:rgb(87.450981%,87.450981%,87.450981%);stop-opacity:1;"
         offset="1" />
    </radialGradient>
    <linearGradient
       id="e-6"
       x1="28"
       x2="116"
       y1="-274"
       y2="-274"
       gradientTransform="translate(-136,172)"
       gradientUnits="userSpaceOnUse">
      <stop
         stop-color="#c0bfbc"
         offset="0"
         id="stop2-2"
         style="stop-color:#1a5fb4;stop-opacity:1" />
      <stop
         stop-color="#f6f5f4"
         offset=".045"
         id="stop4-9"
         style="stop-color:#62a0ea;stop-opacity:1" />
      <stop
         stop-color="#deddda"
         offset=".091"
         id="stop6-1"
         style="stop-color:#1a5fb4;stop-opacity:1" />
      <stop
         stop-color="#deddda"
         offset=".909"
         id="stop8-2"
         style="stop-color:#1a5fb4;stop-opacity:1" />
      <stop
         stop-color="#f6f5f4"
         offset=".955"
         id="stop10-7"
         style="stop-color:#62a0ea;stop-opacity:1" />
      <stop
         stop-color="#c0bfbc"
         offset="1"
         id="stop12-0"
         style="stop-color:#1a5fb4;stop-opacity:1" />
    </linearGradient>
    <radialGradient
       gradientUnits="userSpaceOnUse"
       gradientTransform="matrix(0.21429,0,0,0.32237,9.1429,245.59)"
       r="225"
       cy="-60.348"
       cx="106.67"
       id="radialGradient1018-9">
      <stop
         offset="0"
         style="stop-color:#50dbb5"
         id="stop6822-3" />
      <stop
         offset="1"
         style="stop-color:#4a86cf"
         id="stop6824-6" />
    </radialGradient>
    <radialGradient
       gradientUnits="userSpaceOnUse"
       gradientTransform="matrix(0.38857,0,0,0.52385,-35.474,148.05)"
       r="225"
       cy="218.28"
       cx="276.59"
       id="radialGradient1020-0">
      <stop
         offset="0"
         style="stop-color:#98c1f1"
         id="stop1030-6" />
      <stop
         offset="1"
         style="stop-color:#2dc0af;stop-opacity:.1378"
         id="stop1032-2" />
    </radialGradient>
    <radialGradient
       gradientUnits="userSpaceOnUse"
       gradientTransform="matrix(0.38857,0,0,0.27573,-35.474,-281.79)"
       r="225"
       cy="86.748"
       cx="317.76"
       id="radialGradient1038-6">
      <stop
         offset="0"
         style="stop-color:#1a5fb4"
         id="stop1040-1" />
      <stop
         offset="1"
         style="stop-color:#98c1f1;stop-opacity:0"
         id="stop1042-8" />
    </radialGradient>
    <radialGradient
       gradientTransform="matrix(0.232034,-0.541475,-0.368794,-0.0298398,123.62107,109.46779)"
       r="160"
       fy="55.927143"
       fx="131.914749"
       cy="55.927143"
       cx="131.914749"
       gradientUnits="userSpaceOnUse"
       id="radial0-3">
      <stop
         id="stop1407-6"
         style="stop-color:#26a269;stop-opacity:1"
         offset="0" />
      <stop
         id="stop1409-1"
         style="stop-color:#99c1f1;stop-opacity:1"
         offset="1" />
    </radialGradient>
    <radialGradient
       gradientTransform="matrix(-0.107656,-0.225172,-0.327748,0.258343,493.22305,20.714387)"
       r="192"
       fy="638.591797"
       fx="525.587769"
       cy="638.591797"
       cx="525.587769"
       gradientUnits="userSpaceOnUse"
       id="radial1-2">
      <stop
         id="stop1412-9"
         style="stop-color:rgb(10.980392%,44.313726%,84.705883%);stop-opacity:1;"
         offset="0" />
      <stop
         id="stop1414-3"
         style="stop-color:rgb(20.784314%,51.764709%,89.411765%);stop-opacity:0.00829876;"
         offset="1" />
    </radialGradient>
    <clipPath
       id="clip1-1">
      <path
         id="path1417-9"
         d="M 7 46 L 57 46 L 57 93 L 7 93 Z M 7 46 " />
    </clipPath>
    <clipPath
       id="clip2-4">
      <path
         id="path1420-7"
         d="M 32.25 46.957031 C 19.6875 46.96875 9.085938 56.636719 7.503906 69.53125 C 9.0625 82.445312 19.667969 92.144531 32.25 92.160156 C 44.816406 92.148438 55.414062 82.480469 57 69.585938 C 55.441406 56.671875 44.835938 46.972656 32.25 46.957031 Z M 32.25 46.957031 " />
    </clipPath>
    <radialGradient
       gradientTransform="matrix(0.485163,-1.148584,-0.771115,-0.0632965,63.477023,218.16177)"
       r="160"
       fy="55.927143"
       fx="131.914749"
       cy="55.927143"
       cx="131.914749"
       gradientUnits="userSpaceOnUse"
       id="radial2-8">
      <stop
         id="stop1423-4"
         style="stop-color:rgb(92.941177%,20%,23.137255%);stop-opacity:1;"
         offset="0" />
      <stop
         id="stop1425-5"
         style="stop-color:rgb(63.921571%,27.843139%,72.941178%);stop-opacity:1;"
         offset="1" />
    </radialGradient>
    <radialGradient
       gradientTransform="matrix(-0.225099,-0.477638,-0.685291,0.548001,564.99989,40.891657)"
       r="192"
       fy="638.591797"
       fx="525.587769"
       cy="638.591797"
       cx="525.587769"
       gradientUnits="userSpaceOnUse"
       id="radial3-0">
      <stop
         id="stop1428-3"
         style="stop-color:rgb(10.980392%,44.313726%,84.705883%);stop-opacity:1;"
         offset="0" />
      <stop
         id="stop1430-6"
         style="stop-color:rgb(20.784314%,51.764709%,89.411765%);stop-opacity:0.00829876;"
         offset="1" />
    </radialGradient>
    <radialGradient
       gradientTransform="matrix(1.560712,0,0,1.4252,420.03698,3.8592965)"
       r="15.85742"
       fy="28.569126"
       fx="-172.560638"
       cy="28.569126"
       cx="-172.560638"
       gradientUnits="userSpaceOnUse"
       id="radial4-6">
      <stop
         id="stop1446-1"
         style="stop-color:rgb(100%,100%,100%);stop-opacity:0.358268;"
         offset="0" />
      <stop
         id="stop1448-5"
         style="stop-color:rgb(100%,100%,100%);stop-opacity:0.0944882;"
         offset="1" />
    </radialGradient>
    <filter
       height="100%"
       width="100%"
       y="0%"
       x="0%"
       filterUnits="objectBoundingBox"
       id="alpha-5">
      <feColorMatrix
         id="feColorMatrix1451-4"
         values="0 0 0 0 1 0 0 0 0 1 0 0 0 0 1 0 0 0 1 0"
         in="SourceGraphic"
         type="matrix" />
    </filter>
    <mask
       id="mask0-7">
      <g
         style="filter:url(#alpha-5)"
         id="g1456-6"
         filter="url(#alpha)">
        <rect
           id="rect1454-5"
           style="fill:rgb(0%,0%,0%);fill-opacity:0.1;stroke:none;"
           height="128"
           width="128"
           y="0"
           x="0" />
      </g>
    </mask>
    <clipPath
       id="clip3-6">
      <rect
         id="rect1459-9"
         height="152"
         width="192"
         y="0"
         x="0" />
    </clipPath>
    <g
       clip-path="url(#clip3-6)"
       id="surface382-3">
      <path
         id="path1462-7"
         d="M 40 59.957031 C 26.191406 59.957031 15 71.152344 15 84.957031 C 15.011719 85.996094 15.085938 86.777344 15.222656 87.804688 C 15.222656 75.957031 27.421875 65.96875 40 65.957031 C 52.597656 65.972656 64.777344 75.957031 64.777344 87.859375 C 64.917969 86.816406 64.992188 86.011719 65 84.957031 C 65 71.152344 53.808594 59.957031 40 59.957031 Z M 40 59.957031 "
         style=" stroke:none;fill-rule:nonzero;fill:rgb(27.058825%,21.176471%,21.568628%);fill-opacity:1;" />
    </g>
    <radialGradient
       gradientTransform="matrix(0.575553,0,1.60551e-8,1.540703,128.32123,-290.27178)"
       r="28"
       fy="227"
       fx="40"
       cy="227"
       cx="40"
       gradientUnits="userSpaceOnUse"
       id="radial5-4">
      <stop
         id="stop1465-5"
         style="stop-color:rgb(100%,100%,100%);stop-opacity:1;"
         offset="0" />
      <stop
         id="stop1467-2"
         style="stop-color:rgb(98.039216%,98.039216%,98.039216%);stop-opacity:1;"
         offset="0.744626" />
      <stop
         id="stop1469-5"
         style="stop-color:rgb(87.450981%,87.450981%,87.450981%);stop-opacity:1;"
         offset="1" />
    </radialGradient>
  </defs>
  <rect
     id="rect17"
     fill="#deddda"
     rx="8"
     height="59"
     width="88"
     y="61"
     x="20" />
  <rect
     style="fill:url(#e)"
     id="rect19"
     fill="url(#e)"
     ry="8"
     rx="8"
     height="40"
     width="88"
     y="-120"
     x="-108"
     transform="scale(-1)" />
  <path
     id="rect21"
     style="fill:#5e5c64"
     d="M 28 8 C 23.568 8 20 11.568 20 16 L 20 104 C 20 108.432 23.568 112 28 112 L 100 112 C 104.432 112 108 108.432 108 104 L 108 51.300781 C 108 49.179048 107.15654 47.142869 105.65625 45.642578 L 70.332031 10.34375 C 68.83174 8.8434589 66.797513 8.0000001 64.675781 8 L 28 8 z " />
  <path
     id="rect991"
     style="fill:#f6f5f4;stroke-width:0.916058"
     d="m 28,12 h 38 l 38,38 v 54 c 0,2.216 -1.784,4 -4,4 H 28 c -2.216,0 -4,-1.784 -4,-4 V 16 c 0,-2.216 1.784,-4 4,-4 z" />
  <path
     id="path51"
     fill-opacity="0.272"
     fill="#c0bfbc"
     d="M 108,108.654 A 7.468,7.468 0 0 1 100.508,116 h -0.5 v 1 h 0.5 a 8.488,8.488 0 0 0 7.463,-4.428 C 107.984,112.382 108,112.193 108,112 Z M 66,116 l 34,1 v -1 z"
     style="fill:#000000;fill-opacity:0.27200001" />
  <path
     id="circle1388"
     style="fill:#5e5c64;stroke-width:7.70256;stroke-linecap:round"
     d="m 84,8 c -1.617849,0 -3.076189,0.9740526 -3.695312,2.46875 -0.619124,1.494698 -0.276805,3.215383 0.867187,4.359375 l 20.000005,20 c 1.14399,1.143992 2.86467,1.486311 4.35937,0.867187 C 107.02595,35.076189 108,33.61785 108,32 V 12 c 0,-2.216 -1.784,-4 -4,-4 z" />
  <g
     id="g1107"
     transform="matrix(0.20454545,0,0,0.21212122,47.498956,59.779869)" />
  <g
     transform="matrix(0.20454545,0,0,0.21212122,47.498956,77.779869)"
     id="g1137" />
  <path
     d="m 32,28 v 4 h 40 v -4 z"
     fill="#77767b"
     fill-rule="evenodd"
     font-family="sans-serif"
     font-weight="400"
     overflow="visible"
     style="font-variant-ligatures:normal;font-variant-position:normal;font-variant-caps:normal;font-variant-numeric:normal;font-variant-alternates:normal;font-feature-settings:normal;text-indent:0;text-decoration:none;text-decoration-line:none;text-decoration-style:solid;text-decoration-color:#000000;text-transform:none;text-orientation:mixed;white-space:normal;shape-padding:0;isolation:auto;mix-blend-mode:normal"
     id="path47" />
  <path
     d="m 32,42 v -6 h 48 v 6 z"
     fill="#deddda"
     overflow="visible"
     id="path49" />
  <rect
     style="fill:#deddda;stroke-width:17.1476;stroke-linecap:round;stroke-linejoin:round;paint-order:stroke fill markers"
     id="rect1112"
     width="64"
     height="48"
     x="32"
     y="46" />
  <path
     id="path1178"
     style="fill:#3d3846;stroke-width:0.45283"
     d="m 71.104991,84 c -0.644829,0 -1.075639,0.09544 -1.294809,0.287438 -0.217358,0.188378 -0.326354,0.568588 -0.326354,1.139153 v 0.930426 c -5e-6,0.387623 -0.06841,0.655463 -0.206075,0.80218 -0.135848,0.147623 -0.386789,0.221991 -0.75177,0.221991 H 68.2863 v 0.552774 h 0.239683 c 0.362264,0 0.611457,0.07607 0.749118,0.226416 0.139471,0.149433 0.207839,0.418895 0.207839,0.810139 v 0.926885 c 0,0.570566 0.108997,0.952501 0.326354,1.14269 0.22008,0.192 0.651796,0.286556 1.294814,0.286556 h 0.248527 v -0.55719 h -0.271522 c -0.361358,0 -0.598827,-0.05574 -0.709317,-0.168045 -0.108679,-0.111397 -0.162733,-0.351302 -0.162733,-0.720811 v -0.962264 c 0,-0.402113 -0.05739,-0.695302 -0.175119,-0.878246 -0.115019,-0.183849 -0.317882,-0.310569 -0.604071,-0.380305 0.283472,-0.0652 0.484609,-0.188477 0.600534,-0.373231 0.118641,-0.182944 0.178656,-0.477813 0.178656,-0.883549 v -0.961381 c 0,-0.366792 0.05406,-0.605878 0.162733,-0.717274 0.111396,-0.113208 0.347054,-0.170699 0.709317,-0.170699 h 0.271522 V 84 Z m 6.307784,0.0018 v 0.553652 h 0.262678 c 0.364981,0 0.602341,0.05749 0.713738,0.170699 0.112301,0.114113 0.167158,0.353199 0.167158,0.717274 v 0.961381 c 0,0.405736 0.05743,0.701534 0.173347,0.882666 0.119547,0.182943 0.320577,0.308024 0.604954,0.373231 -0.288,0.06883 -0.487218,0.19555 -0.604954,0.380305 -0.115925,0.181133 -0.173347,0.475223 -0.173347,0.878242 v 0.961381 c 0,0.364075 -0.05576,0.603161 -0.167158,0.717274 -0.111397,0.113208 -0.348757,0.170699 -0.713738,0.170699 h -0.262678 v 0.557194 h 0.24145 c 0.643018,0 1.073031,-0.09544 1.290389,-0.287443 0.217359,-0.192001 0.326359,-0.572124 0.326359,-1.142691 v -0.926 c 0,-0.39034 0.06934,-0.659801 0.205187,-0.810141 0.139472,-0.149443 0.391231,-0.224658 0.755307,-0.224658 h 0.248526 v -0.55454 h -0.24941 c -0.36498,0 -0.616722,-0.07348 -0.75619,-0.221109 C 79.337635,87.0125 79.270085,86.74466 79.270085,86.357037 v -0.930426 c 0,-0.570566 -0.108995,-0.950794 -0.326354,-1.138265 -0.217359,-0.191094 -0.647371,-0.286555 -1.290389,-0.286555 z M 64.03748,84.798671 v 1.231133 h -1.159494 v 0.55454 h 1.159494 v 2.356134 c 0,0.525283 0.110727,0.895323 0.329897,1.109965 0.220074,0.212829 0.597735,0.321047 1.132075,0.321047 h 0.872052 v -0.570457 h -0.802185 c -0.30249,0 -0.514547,-0.06336 -0.635905,-0.190153 -0.121359,-0.126802 -0.183079,-0.349807 -0.183079,-0.670411 v -2.356134 h 1.621169 v -0.555423 h -1.619399 v -1.23025 z m -13.835197,1.012678 c -0.520756,0 -0.923847,0.114091 -1.204602,0.340506 -0.28166,0.224604 -0.422757,0.54566 -0.422757,0.962264 0,0.326038 0.09552,0.58719 0.283902,0.779189 0.188376,0.188378 0.4883,0.320908 0.89947,0.402418 l 0.267097,0.05483 0.03007,0.0088 c 0.632151,0.126793 0.949879,0.354852 0.949879,0.686324 0,0.230944 -0.08706,0.409993 -0.259137,0.539502 -0.173886,0.124981 -0.418908,0.188386 -0.734078,0.188386 -0.217359,0 -0.447143,-0.03292 -0.68986,-0.09994 -0.242716,-0.06973 -0.497003,-0.173706 -0.763267,-0.309555 v 0.735849 c 0.274415,0.09057 0.527796,0.156367 0.763267,0.20165 0.235472,0.04619 0.460181,0.06987 0.674821,0.06987 0.542492,0 0.966612,-0.119924 1.271819,-0.361735 0.303397,-0.241812 0.457251,-0.578128 0.457251,-1.0056 0,-0.324226 -0.09299,-0.586973 -0.275942,-0.788028 -0.181132,-0.201963 -0.448976,-0.33538 -0.802184,-0.403304 l -0.286555,-0.05484 c -0.472755,-0.09057 -0.770238,-0.183505 -0.887973,-0.278599 -0.118642,-0.096 -0.178655,-0.241327 -0.178655,-0.435139 0,-0.213735 0.07942,-0.372583 0.237912,-0.475829 0.159396,-0.105962 0.401031,-0.160963 0.724352,-0.160963 0.215547,0 0.424066,0.03133 0.632372,0.0911 0.206491,0.05887 0.410885,0.14936 0.615564,0.267096 v -0.697815 h 0.0018 c -0.208302,-0.08604 -0.418591,-0.148497 -0.634138,-0.190157 -0.21283,-0.04437 -0.436742,-0.06633 -0.670402,-0.06633 z m 4.546872,0.01503 c -0.520755,0 -0.933148,0.202754 -1.232015,0.60849 -0.299774,0.405736 -0.448406,0.967521 -0.448406,1.686616 -6e-6,0.704604 0.149497,1.259719 0.450176,1.662738 0.301585,0.401208 0.713072,0.600529 1.232015,0.600529 0.26083,0 0.48979,-0.05751 0.686319,-0.16981 0.198702,-0.117415 0.356454,-0.281489 0.472288,-0.496171 v 2.20401 h 0.717279 v -5.992039 h -0.717279 v 0.55454 c -0.118642,-0.214624 -0.277463,-0.377679 -0.476708,-0.489076 -0.196529,-0.113207 -0.423745,-0.16981 -0.683669,-0.16981 z m 6.051296,0.07075 c -0.337811,0 -0.630091,0.08191 -0.878242,0.247644 -0.24634,0.163019 -0.429726,0.398735 -0.547462,0.706659 v -0.848168 h -0.717279 v 4.340797 h 0.717279 v -2.160669 c 0,-0.527094 0.118302,-0.930077 0.353774,-1.209021 0.234566,-0.278943 0.574166,-0.418338 1.019751,-0.418338 0.188377,0 0.362462,0.02703 0.520048,0.08137 0.15633,0.05421 0.31161,0.140915 0.46344,0.258253 v -0.727888 c -0.138566,-0.09328 -0.285641,-0.160831 -0.437792,-0.204304 -0.153057,-0.04437 -0.316913,-0.06634 -0.493517,-0.06634 z m 11.510912,0.01947 1.554833,2.077534 -1.705191,2.264151 h 0.824296 l 1.268278,-1.740566 1.271814,1.740566 h 0.824292 l -1.705187,-2.264151 1.554833,-2.077534 h -0.80218 l -1.143572,1.570754 -1.150651,-1.570754 z M 54.863249,86.43134 c 0.344152,0 0.604393,0.141034 0.779186,0.425411 0.178414,0.28166 0.267097,0.698201 0.267097,1.247937 0,0.550641 -0.08955,0.968843 -0.268868,1.254126 -0.174792,0.281661 -0.434151,0.421876 -0.778302,0.421876 -0.344151,0 -0.603486,-0.140234 -0.779185,-0.420988 -0.172076,-0.28166 -0.259141,-0.700791 -0.259141,-1.253244 l 9.06e-4,-0.0018 c 0,-0.552453 0.08706,-0.970718 0.259136,-1.251473 0.175699,-0.281661 0.435039,-0.421875 0.779189,-0.421875 z" />
  <path
     id="path1148"
     style="fill:#c0bfbc;stroke-width:0.45368"
     d="M 60.814267,52 51.185435,74.531292 45.482605,63.358859 40,65.45397 40.974644,68.860297 43.616451,67.470956 50.400061,82 h 1.6079 L 63.083725,55.637142 H 85.281248 V 57.45527 H 88 V 52.000886 H 60.816038 Z m 5.188094,9.090641 7.639738,10.195897 v 0.129611 l -7.920992,10.582964 h 4.491157 l 5.89387,-7.875304 h 0.140622 l 5.89387,7.875304 h 4.865271 L 78.89829,71.243035 v -0.129609 l 7.451356,-10.021899 h -4.489385 l -5.519756,7.270734 h -0.140622 l -5.333139,-7.27162 z" />
  <path
     d="M 60.814267,50 51.185435,72.531292 45.482605,61.358859 40,63.45397 40.974644,66.860297 43.616451,65.470956 50.400061,80 h 1.6079 L 63.083725,53.637142 H 85.281248 V 55.45527 H 88 V 50.000886 H 60.816038 Z m 5.188094,9.090641 7.639738,10.195897 v 0.129611 l -7.920992,10.582964 h 4.491157 l 5.89387,-7.875304 h 0.140622 l 5.89387,7.875304 h 4.865271 L 78.89829,69.243035 v -0.129609 l 7.451356,-10.021899 h -4.489385 l -5.519756,7.270734 h -0.140622 l -5.333139,-7.27162 z"
     style="fill:#3d3846;stroke-width:0.45368"
     id="path1196" />
</svg>
