<?xml version="1.0" encoding="UTF-8" standalone="no"?>
<svg
   xmlns:dc="http://purl.org/dc/elements/1.1/"
   xmlns:cc="http://creativecommons.org/ns#"
   xmlns:rdf="http://www.w3.org/1999/02/22-rdf-syntax-ns#"
   xmlns:svg="http://www.w3.org/2000/svg"
   xmlns="http://www.w3.org/2000/svg"
   viewBox="0 0 128 128"
   version="1.0"
   style="enable-background:new"
   height="128"
   width="128"
   id="svg11300">
  <title
     id="title4162">Adwaita Icon Template</title>
  <defs
     id="defs3">
    <linearGradient
       gradientUnits="userSpaceOnUse"
       gradientTransform="matrix(.25 0 0 .25 -110 225)"
       y2="44"
       y1="44"
       x2="464"
       x1="48"
       id="linearGradient1747">
      <stop
         offset="0"
         style="stop-color:#c01c28;stop-opacity:1"
         id="stop962" />
      <stop
         offset=".041667"
         style="stop-color:#f88477;stop-opacity:1"
         id="stop964" />
      <stop
         offset=".083333"
         style="stop-color:#c01c28;stop-opacity:1"
         id="stop966" />
      <stop
         offset=".91667"
         style="stop-color:#e01b24;stop-opacity:1"
         id="stop968" />
      <stop
         offset=".95833"
         style="stop-color:#f88477;stop-opacity:1"
         id="stop970" />
      <stop
         offset="1"
         style="stop-color:#c01c28;stop-opacity:1"
         id="stop972" />
    </linearGradient>
    <clipPath
       id="clipPath1784">
      <rect
         style="fill:#3584e4"
         ry="14"
         rx="14"
         height="28"
         width="60"
         y="202"
         x="36"
         id="rect1786" />
    </clipPath>
    <linearGradient
       gradientUnits="userSpaceOnUse"
       gradientTransform="scale(1.0018059,0.99819732)"
       id="a"
       x1="142.44026"
       x2="358.94863"
       y1="80.53595"
       y2="456.88947">
      <stop
         stop-opacity=".2"
         offset="0%"
         id="stop859" />
      <stop
         stop-opacity=".05"
         offset="79.08%"
         id="stop861" />
    </linearGradient>
    <linearGradient
       id="m"
       x1="529.29"
       x2="543.34"
       y1="441.73"
       y2="408.6"
       gradientTransform="translate(-461.56,-35.819)"
       gradientUnits="userSpaceOnUse">
      <stop
         stop-color="#f9f06b"
         offset="0"
         id="stop902" />
      <stop
         stop-color="#f6d32d"
         offset="1"
         id="stop904" />
    </linearGradient>
    <linearGradient
       id="l"
       x1="529.29"
       x2="543.34"
       y1="441.73"
       y2="408.6"
       gradientTransform="rotate(-120,320.2,508.25)"
       gradientUnits="userSpaceOnUse">
      <stop
         stop-color="#2dc0af"
         offset="0"
         id="stop907" />
      <stop
         stop-color="#5ed9cb"
         offset="1"
         id="stop909" />
    </linearGradient>
    <linearGradient
       id="k"
       x1="56"
       x2="0"
       y1="252"
       y2="244"
       gradientTransform="translate(42.443,122.18)"
       gradientUnits="userSpaceOnUse">
      <stop
         stop-color="#fff"
         offset="0"
         id="stop912" />
      <stop
         stop-color="#fff"
         stop-opacity="0"
         offset="1"
         id="stop914" />
    </linearGradient>
    <linearGradient
       id="j"
       x1="64"
       x2="80"
       y1="260"
       y2="220"
       gradientTransform="translate(42.443,122.18)"
       gradientUnits="userSpaceOnUse">
      <stop
         stop-color="#2dc0af"
         offset="0"
         id="stop917" />
      <stop
         stop-color="#3584e4"
         offset="1"
         id="stop919" />
    </linearGradient>
    <linearGradient
       id="i"
       x1="32"
       x2="56"
       y1="239.25"
       y2="196"
       gradientTransform="translate(42.443,122.18)"
       gradientUnits="userSpaceOnUse">
      <stop
         stop-color="#c061cb"
         offset="0"
         id="stop922" />
      <stop
         stop-color="#8f58c8"
         offset="1"
         id="stop924" />
    </linearGradient>
  </defs>
  <metadata
     id="metadata4">
    <rdf:RDF>
      <cc:Work
         rdf:about="">
        <dc:format>image/svg+xml</dc:format>
        <dc:type
           rdf:resource="http://purl.org/dc/dcmitype/StillImage" />
        <dc:creator>
          <cc:Agent>
            <dc:title>GNOME Design Team</dc:title>
          </cc:Agent>
        </dc:creator>
        <dc:source />
        <cc:license
           rdf:resource="http://creativecommons.org/licenses/by-sa/4.0/" />
        <dc:title>Adwaita Icon Template</dc:title>
        <dc:subject>
          <rdf:Bag />
        </dc:subject>
        <dc:date />
        <dc:rights>
          <cc:Agent>
            <dc:title />
          </cc:Agent>
        </dc:rights>
        <dc:publisher>
          <cc:Agent>
            <dc:title />
          </cc:Agent>
        </dc:publisher>
        <dc:identifier />
        <dc:relation />
        <dc:language />
        <dc:coverage />
        <dc:description />
        <dc:contributor>
          <cc:Agent>
            <dc:title />
          </cc:Agent>
        </dc:contributor>
      </cc:Work>
      <cc:License
         rdf:about="http://creativecommons.org/licenses/by-sa/4.0/">
        <cc:permits
           rdf:resource="http://creativecommons.org/ns#Reproduction" />
        <cc:permits
           rdf:resource="http://creativecommons.org/ns#Distribution" />
        <cc:requires
           rdf:resource="http://creativecommons.org/ns#Notice" />
        <cc:requires
           rdf:resource="http://creativecommons.org/ns#Attribution" />
        <cc:permits
           rdf:resource="http://creativecommons.org/ns#DerivativeWorks" />
        <cc:requires
           rdf:resource="http://creativecommons.org/ns#ShareAlike" />
      </cc:License>
    </rdf:RDF>
  </metadata>
  <g
     transform="translate(0,-172)"
     id="layer1">
    <g
       id="layer9">
      <g
         transform="translate(110)"
         id="g1769">
        <rect
           id="rect889"
           x="-98"
           y="205"
           width="104"
           height="84"
           rx="16"
           ry="16"
           style="fill:#a51d2d;fill-opacity:1;paint-order:normal;enable-background:new" />
        <rect
           style="fill:url(#linearGradient1747);paint-order:normal;enable-background:new"
           ry="16"
           rx="16"
           height="84"
           width="104"
           y="204"
           x="-98"
           id="rect1709" />
        <rect
           style="fill:#ed333b;paint-order:normal;enable-background:new"
           ry="16"
           rx="16"
           height="100"
           width="104"
           y="184"
           x="-98"
           id="rect1711" />
      </g>
      <g
         transform="translate(0,-2)"
         id="g1802">
        <g
           transform="matrix(-1,0,0,1,130,-4)"
           id="g1151" />
      </g>
      <g
         transform="matrix(-1,0,0,1,128,38)"
         id="g1818">
        <g
           transform="matrix(-1,0,0,1,130,-4)"
           id="g1814" />
      </g>
    </g>
  </g>
  <circle
     style="fill:#c01c28;stroke:none;stroke-width:2.29646"
     id="circle985"
     cx="64"
     cy="66"
     r="36" />
  <circle
     r="36"
     cy="62"
     cx="64"
     id="path983"
     style="fill:#ffffff;stroke:none;stroke-width:2.29646" />
  <path
     id="path981"
     d="M 87.293187,53.092674 C 81.357003,63.408649 75.420818,73.724624 69.484633,84.061783 68.386122,85.989408 66.780606,87.133275 64.583585,87.302736 62.13306,87.472198 60.18954,86.434245 58.943152,84.315975 55.182865,77.855251 51.464827,71.352162 47.746791,64.870256 45.48639,60.930273 43.204867,56.990291 40.944472,53.029126 c -2.281522,-3.982348 0.295755,-8.833187 4.858801,-9.066197 2.408272,-0.127095 4.26729,0.995588 5.492552,3.092675 1.668892,2.859665 3.316659,5.761694 4.985551,8.642542 1.204137,2.075905 2.366023,4.172992 3.591286,6.206531 1.774518,2.986762 4.394044,4.660195 7.879704,4.872022 4.922175,0.296557 9.506346,-3.283319 10.097851,-8.515446 0.04225,-0.381289 0.06338,-0.78376 0.0845,-0.974405 -0.02113,-1.694615 -0.338003,-3.135039 -1.01401,-4.46955 -1.837893,-3.685789 0.126751,-7.816416 4.119416,-8.70609 3.253283,-0.720211 6.633317,1.673434 7.055821,4.977935 0.211253,1.419241 -0.0845,2.753751 -0.802757,4.003531 z"
     style="stroke-width:0.211539;enable-background:new;fill:#c01c28" />
</svg>
